[{"IBAN":"EE23 0107 3350 1360 3684","userId":112,"balance":94516},
{"IBAN":"NL37 BJBX 7056 1184 78","userId":106,"balance":74439},
{"IBAN":"FR84 1104 0198 73A8 O4US KWK8 H29","userId":301,"balance":69947},
{"IBAN":"HR41 1255 4343 7467 8455 0","userId":129,"balance":42641},
{"IBAN":"MK10 734N LNUV OMCR P50","userId":192,"balance":55586},
{"IBAN":"AL15 6671 5499 FHHS FNXC HI8X IIQE","userId":297,"balance":67255},
{"IBAN":"GT27 2KRY 58JK UB3J RGZY 3TBJ QJSX","userId":81,"balance":70590},
{"IBAN":"GL13 4900 4873 8536 68","userId":259,"balance":89834},
{"IBAN":"IT92 I944 4591 521T J2JK FFCB 9FR","userId":163,"balance":-914},
{"IBAN":"LB18 1496 UYMD ZS7S UYFE DUA4 EMUG","userId":53,"balance":73508},
{"IBAN":"EE25 8962 6796 7962 4174","userId":247,"balance":11189},
{"IBAN":"LU98 2316 DR28 G9FE W6AR","userId":148,"balance":12005},
{"IBAN":"SM04 N343 2145 951B A1VT UTQJ GNP","userId":161,"balance":19477},
{"IBAN":"GR12 7111 871L KFLT FY2H GUXF BJQ","userId":132,"balance":41482},
{"IBAN":"BA98 3899 7652 4907 7000","userId":3,"balance":32703},
{"IBAN":"ME91 1895 6578 4416 7130 71","userId":291,"balance":136},
{"IBAN":"AE35 1576 7897 6006 4445 148","userId":283,"balance":86856},
{"IBAN":"FR92 5536 5601 84UH TD68 ZKZC 089","userId":39,"balance":25230},
{"IBAN":"CZ18 6354 7791 9412 1233 3503","userId":185,"balance":95171},
{"IBAN":"PS92 NTDZ XRGA EGYF TLSQ 63IO GGUZ D","userId":120,"balance":4333},
{"IBAN":"IE49 FSHX 6816 0158 3505 82","userId":7,"balance":22677},
{"IBAN":"MR02 5142 9556 0951 8885 3184 530","userId":111,"balance":74574},
{"IBAN":"PL03 6560 6265 4881 9410 2795 8022","userId":52,"balance":19708},
{"IBAN":"FR09 5290 1386 79CJ 4VAQ SLA2 H98","userId":87,"balance":81829},
{"IBAN":"AD35 5149 9720 ZBEW WBLT SXVM","userId":189,"balance":93529},
{"IBAN":"NL53 CLPM 5812 8065 87","userId":103,"balance":69364},
{"IBAN":"SE16 2020 6918 4954 9905 0260","userId":241,"balance":96738},
{"IBAN":"DE25 1420 9496 9964 0948 40","userId":16,"balance":76649},
{"IBAN":"LI50 9181 0OBL J79I CPKL I","userId":232,"balance":4738},
{"IBAN":"LI84 8548 3XDB RTMG 8UNF H","userId":260,"balance":19923},
{"IBAN":"SE94 1218 3479 5312 8398 9543","userId":254,"balance":8643},
{"IBAN":"DE68 4569 4757 2096 8282 01","userId":306,"balance":77977},
{"IBAN":"LI57 1263 3EFN UYRR 1OK4 C","userId":108,"balance":60615},
{"IBAN":"FR40 6371 6198 12OA A0NT MLJ8 Q99","userId":285,"balance":19410},
{"IBAN":"PL25 9962 7389 9755 9119 3809 2567","userId":154,"balance":7057},
{"IBAN":"GT12 VOAI WHQU IMDZ AFJN FPRS ZMDY","userId":286,"balance":7227},
{"IBAN":"RS36 1428 9747 2052 3574 12","userId":179,"balance":3337},
{"IBAN":"MD17 UF8M 7YH9 YA0B 5L6O LCDL","userId":266,"balance":6883},
{"IBAN":"LU37 089J SOFC VT0O AWLW","userId":83,"balance":5078},
{"IBAN":"NO48 7252 2076 530","userId":142,"balance":16662},
{"IBAN":"CH76 2754 9RHB RZIC PMOR H","userId":193,"balance":44977},
{"IBAN":"TR34 0949 7AMQ SOWF ANU0 YRRS CC","userId":2,"balance":646},
{"IBAN":"HR64 8269 6204 1626 6168 4","userId":241,"balance":79819},
{"IBAN":"MK86 716G X8GC X2YX M47","userId":3,"balance":17113},
{"IBAN":"SE45 2363 4380 8459 6709 3006","userId":21,"balance":22683},
{"IBAN":"AL21 6617 9033 1CEU SEFA ERMQ WOUE","userId":115,"balance":39445},
{"IBAN":"DO66 AIBT 3639 0562 9374 2222 9555","userId":196,"balance":15448},
{"IBAN":"EE31 3743 7011 6424 1774","userId":19,"balance":73505},
{"IBAN":"AL10 9926 3203 4QJA EPR5 BY0M BLWN","userId":143,"balance":35705},
{"IBAN":"NO24 3596 0572 152","userId":21,"balance":32786},
{"IBAN":"SI85 4601 8843 1279 520","userId":206,"balance":48266},
{"IBAN":"EE66 8439 5329 7119 0606","userId":182,"balance":83775},
{"IBAN":"BG95 GFYV 4772 042R ZJV8 HP","userId":240,"balance":88580},
{"IBAN":"ES60 6794 8003 3235 0939 1043","userId":283,"balance":65993},
{"IBAN":"LB31 2474 WRIG N4T8 GSAN N9US SS3G","userId":272,"balance":56063},
{"IBAN":"VG76 MHST 1080 3070 8984 3573","userId":63,"balance":11492},
{"IBAN":"MC19 3268 0322 06DG XOI5 HULH I03","userId":257,"balance":26418},
{"IBAN":"SI47 0162 1931 2795 286","userId":55,"balance":9718},
{"IBAN":"MK88 231T AMD8 6X24 X85","userId":52,"balance":21769},
{"IBAN":"SA97 45WL QWYT E4TX 0PFS EA6R","userId":225,"balance":21834},
{"IBAN":"LB88 9097 KMEJ HOMG U0FL GHXB NO8M","userId":286,"balance":37402},
{"IBAN":"FO03 1815 2712 5940 74","userId":216,"balance":7044},
{"IBAN":"GE37 YY92 5994 2321 2639 04","userId":83,"balance":12425},
{"IBAN":"SK54 9067 7548 7459 3657 6808","userId":55,"balance":34586},
{"IBAN":"AT38 1328 3708 1127 8227","userId":197,"balance":33300},
{"IBAN":"MR24 3150 0933 9305 3381 9050 817","userId":296,"balance":59517},
{"IBAN":"FR88 6802 0035 65C1 ANTA JV4H J42","userId":16,"balance":40913},
{"IBAN":"RO67 PZKL 0YVH OXES RZ2P 79RW","userId":165,"balance":53249},
{"IBAN":"FR47 0904 1187 79N3 1VJD GWDU V68","userId":287,"balance":83132},
{"IBAN":"TN24 2404 0552 0075 8881 1915","userId":118,"balance":95391},
{"IBAN":"PL26 3158 5033 6054 6017 8541 8703","userId":108,"balance":43901},
{"IBAN":"FR93 1132 6468 83E4 CQDG TXFT K37","userId":196,"balance":49566},
{"IBAN":"DE02 2447 3947 6867 4895 60","userId":228,"balance":24368},
{"IBAN":"MU88 ORKE 7107 0893 5942 3046 439U TF","userId":37,"balance":41642},
{"IBAN":"GL08 0149 1140 9625 99","userId":98,"balance":8139},
{"IBAN":"GT80 YICJ JKQ2 H8GM WRTO O2D4 M96B","userId":86,"balance":24428},
{"IBAN":"LB14 8672 KULD KULG I0WJ HWVN SH8D","userId":13,"balance":42331},
{"IBAN":"PL12 4020 8529 6261 8504 1654 1510","userId":130,"balance":25537},
{"IBAN":"FR19 1496 6023 43BB CU0U EMXO J81","userId":69,"balance":69079},
{"IBAN":"BH95 LLQJ JDX4 NDBM HQ2A LJ","userId":27,"balance":54252},
{"IBAN":"AT25 5260 4331 8958 7430","userId":264,"balance":44055},
{"IBAN":"PS06 DCKT IVYW QTKF H13M Q7Q8 XPTR M","userId":307,"balance":85727},
{"IBAN":"FR71 7378 3363 20X9 GX9F ISTL 058","userId":93,"balance":51110},
{"IBAN":"BH19 MIIM ANEZ QRS8 VBCJ HC","userId":15,"balance":16301},
{"IBAN":"LT23 7038 9352 4703 6703","userId":25,"balance":51242},
{"IBAN":"LU91 6557 EGKE NTAF RJ0U","userId":200,"balance":18148},
{"IBAN":"TN41 3738 0391 4459 7747 3421","userId":213,"balance":45264},
{"IBAN":"FI39 3795 8433 0580 53","userId":148,"balance":54831},
{"IBAN":"PL75 0138 6209 6374 5805 2526 5424","userId":125,"balance":25931},
{"IBAN":"MR34 9543 0405 8785 8414 1273 657","userId":207,"balance":62826},
{"IBAN":"LT72 1931 1962 5253 6837","userId":32,"balance":57176},
{"IBAN":"BA65 2237 0022 6374 9052","userId":109,"balance":74988},
{"IBAN":"CH67 4441 04IZ EJVB E2MQ E","userId":262,"balance":97113},
{"IBAN":"GT98 FTWX 2AF7 V234 Z7HG RHSL 1L5D","userId":14,"balance":45991},
{"IBAN":"SE05 7926 9242 3986 8510 6361","userId":244,"balance":48147},
{"IBAN":"GT30 ZJEG QCXS KV9R BRUX JLNT WHQU","userId":231,"balance":34205},
{"IBAN":"FR30 0167 9755 44LO RIZR XCIZ R99","userId":289,"balance":37689},
{"IBAN":"KZ32 238E YQUJ UQYO WM40","userId":84,"balance":58486},
{"IBAN":"GB34 QNXO 3346 2162 7113 12","userId":140,"balance":23634},
{"IBAN":"DE50 0044 5278 5848 5327 59","userId":169,"balance":92473},
{"IBAN":"RO48 EJWY TANB Y6Q6 85A3 SBVY","userId":144,"balance":52447},
{"IBAN":"HU08 4800 7448 7251 5792 0297 0180","userId":305,"balance":91373},
{"IBAN":"FR06 3423 0360 66RA BF79 RCVM X96","userId":276,"balance":38228},
{"IBAN":"ES83 0622 3243 8230 1897 8838","userId":29,"balance":21645},
{"IBAN":"AD75 1493 6758 YAPS BVYN JRZQ","userId":307,"balance":89055},
{"IBAN":"LB18 7190 UWUV U5U2 LVP7 6VKS 1ZL8","userId":309,"balance":86312},
{"IBAN":"HR69 5735 5554 1636 5814 2","userId":300,"balance":66042},
{"IBAN":"AZ74 LBKS 28XV D4CN EPVU JKTH YWLO","userId":188,"balance":20480},
{"IBAN":"FR72 5225 5864 825K ONW2 CYBI F21","userId":188,"balance":73819},
{"IBAN":"FI74 3996 0889 6972 68","userId":168,"balance":38872},
{"IBAN":"IT93 J182 5791 339O TIAH COT9 EJE","userId":234,"balance":784},
{"IBAN":"DO89 RY1F 7037 0511 3051 5684 4681","userId":308,"balance":19273},
{"IBAN":"SE78 6861 0284 0821 7139 1690","userId":11,"balance":12170},
{"IBAN":"SA91 38GA L1RZ LJOL YG2V HJYB","userId":303,"balance":83529},
{"IBAN":"IE12 XJBP 8385 8935 2041 23","userId":129,"balance":67072},
{"IBAN":"FI96 2062 2235 2636 03","userId":199,"balance":50058},
{"IBAN":"NL05 XPUI 7346 4792 85","userId":71,"balance":97112},
{"IBAN":"DK60 5914 9625 6294 91","userId":275,"balance":58104},
{"IBAN":"FR08 5475 9428 04CF 1FAD KJMV R70","userId":6,"balance":87849},
{"IBAN":"FO22 7649 8790 2251 43","userId":149,"balance":18824},
{"IBAN":"KW87 EJOP SCHY VUXF Z49Z FZCN LOQW FK","userId":39,"balance":24679},
{"IBAN":"AZ88 YQSD BUXF QUC6 KD1Z UH0F JQEZ","userId":43,"balance":35214},
{"IBAN":"AD57 3246 5270 TLNZ 7KTB 91QR","userId":214,"balance":16220},
{"IBAN":"IE84 SAJW 0223 0247 2985 14","userId":161,"balance":88429},
{"IBAN":"AE71 5388 3060 9403 7312 044","userId":250,"balance":20845},
{"IBAN":"LB20 4294 ZC5Q IHTC PHJJ QQYJ ELAT","userId":178,"balance":69704},
{"IBAN":"HU04 2849 1074 3698 7218 8154 9568","userId":164,"balance":20787},
{"IBAN":"GE36 JU12 2900 3403 4220 13","userId":142,"balance":97694},
{"IBAN":"EE50 7129 4282 2360 1875","userId":88,"balance":54454},
{"IBAN":"FR38 5000 2244 89RU VQA4 RUZT 738","userId":60,"balance":25410},
{"IBAN":"GR58 2731 2099 1AOV 5VJ5 MFIQ 0LW","userId":5,"balance":46440},
{"IBAN":"HU95 2661 0940 1775 2408 4293 3003","userId":178,"balance":24994},
{"IBAN":"HU14 7471 7038 6550 9963 4679 4504","userId":223,"balance":41874},
{"IBAN":"EE32 1741 7868 1498 6157","userId":178,"balance":40649},
{"IBAN":"HU36 8362 0736 0264 0035 9870 9200","userId":306,"balance":46674},
{"IBAN":"LI80 0006 43LV MHDA SAIZ P","userId":270,"balance":53850},
{"IBAN":"KW56 JMUE 4DOB NDFR 7OJX E40B EOFE Y1","userId":149,"balance":7422},
{"IBAN":"PS28 CNEA YUOH YSY7 USMC 4YAX XJAX 5","userId":196,"balance":42773},
{"IBAN":"FR12 4540 9195 43MM ZGGY WKU5 D47","userId":16,"balance":4081},
{"IBAN":"GB08 XEVF 7997 0920 2533 02","userId":193,"balance":21299},
{"IBAN":"PS95 NCQS SDHU 3U6J SOFQ 1RUN KK3O 0","userId":160,"balance":6631},
{"IBAN":"PT66 5910 2214 5379 1367 3789 2","userId":24,"balance":65108},
{"IBAN":"IT54 S692 5357 593V OWHB WYS6 QIW","userId":310,"balance":62990},
{"IBAN":"MC04 0614 6096 40VA FNFE 7L3Y D84","userId":240,"balance":50671},
{"IBAN":"PS58 VWKW SYZZ ENXN T0RN TPEN YJPE 5","userId":172,"balance":45327},
{"IBAN":"FR93 7417 1318 78WM 3RCS EG36 W40","userId":62,"balance":436},
{"IBAN":"VG53 HVDR 0902 0694 9233 6075","userId":145,"balance":29884},
{"IBAN":"ES94 0567 8303 1993 7358 8003","userId":268,"balance":66662},
{"IBAN":"SM52 U671 5538 162N EUH0 ZIFM OVV","userId":167,"balance":6835},
{"IBAN":"KZ75 335P R2OQ EXQX UUH8","userId":267,"balance":36473},
{"IBAN":"AE43 4208 6610 6129 1798 741","userId":179,"balance":33539},
{"IBAN":"CZ04 3689 4085 1985 0234 6406","userId":92,"balance":33013},
{"IBAN":"TR14 0591 5WMR 4LPI 84ZF X1AW WK","userId":281,"balance":76500},
{"IBAN":"BG36 QMZM 1097 33HN UHCP EW","userId":157,"balance":94596},
{"IBAN":"DE20 2799 9233 3414 1766 60","userId":24,"balance":12577},
{"IBAN":"BH43 NTIA LLYD DLT2 RG2Y 9S","userId":226,"balance":51461},
{"IBAN":"SM49 L924 0655 114J XRPB 2N6A EIB","userId":252,"balance":74493},
{"IBAN":"ME42 9700 7804 4358 2744 69","userId":81,"balance":68693},
{"IBAN":"DK97 1448 0074 1333 05","userId":193,"balance":85078},
{"IBAN":"FR10 7840 7337 80N0 XRZ1 RDRE S12","userId":63,"balance":21468},
{"IBAN":"BR48 5074 7398 6884 8724 6845 123V N","userId":251,"balance":51814},
{"IBAN":"GE88 UD72 2330 5701 8585 74","userId":177,"balance":48489},
{"IBAN":"SE83 5395 1068 2542 1576 9451","userId":167,"balance":3106},
{"IBAN":"PT22 8623 6585 2521 1427 8847 9","userId":298,"balance":7393},
{"IBAN":"MD61 V0VD DGVW ARFL SFAL 1O8J","userId":90,"balance":38355},
{"IBAN":"IT74 X007 6607 669E FZZL ZN21 AHA","userId":103,"balance":29462},
{"IBAN":"FI27 5800 3683 8581 63","userId":68,"balance":14109},
{"IBAN":"LI27 2185 2RC7 9XXA Z3BB 6","userId":77,"balance":70628},
{"IBAN":"VG02 NBID 0822 3452 5438 3127","userId":39,"balance":90563},
{"IBAN":"LB51 5101 IPUE DOZ1 0ZR5 FR1P Y17G","userId":258,"balance":62093},
{"IBAN":"LU78 679T TENJ OPSD KWDV","userId":232,"balance":53206},
{"IBAN":"ES81 4870 6134 1922 9942 9130","userId":119,"balance":41808},
{"IBAN":"MC42 7063 3792 02LC 2A7J UHZY E21","userId":72,"balance":40977},
{"IBAN":"AE81 4728 5183 9624 3073 798","userId":211,"balance":37245},
{"IBAN":"PK96 ZKQZ KA7A OYIG AMTU TLZM","userId":137,"balance":63201},
{"IBAN":"BR66 9000 6890 6487 7745 8132 806O 3","userId":91,"balance":73555},
{"IBAN":"AL82 5142 3621 JLMK RRQF UJ3D HACR","userId":56,"balance":997},
{"IBAN":"GT98 JFTD K0EV 2M3P A0SF S5B8 Y9FC","userId":266,"balance":27990},
{"IBAN":"LI09 2113 42IU BTCD WVXC Y","userId":182,"balance":42248},
{"IBAN":"GR83 2809 358N LBLM ZUDM 4N8Y JW6","userId":120,"balance":91896},
{"IBAN":"CZ31 2138 3615 2856 0669 5526","userId":268,"balance":83987},
{"IBAN":"PT29 8369 4914 9171 6937 9937 3","userId":138,"balance":43673},
{"IBAN":"SI47 2110 4829 4724 421","userId":144,"balance":12679},
{"IBAN":"SM97 Y022 2919 678N C3X3 JF5Y STJ","userId":298,"balance":66947},
{"IBAN":"PT97 6092 4563 2461 9347 3337 0","userId":30,"balance":51748},
{"IBAN":"FR27 3009 0374 71ES N5PM 7VGS D56","userId":130,"balance":80528},
{"IBAN":"BA69 8786 5894 8137 6577","userId":163,"balance":83778},
{"IBAN":"BH41 RSLF TKO4 VJGZ PHEW JP","userId":127,"balance":28378},
{"IBAN":"BG67 JELG 4410 13IN M1I9 CT","userId":15,"balance":20479},
{"IBAN":"GT16 DOY3 B6Z8 VVVI UNE8 MJS2 UWVB","userId":234,"balance":60432},
{"IBAN":"RO26 SVDT NQWU RPWO QUQG CXJD","userId":6,"balance":26821},
{"IBAN":"AL91 3598 1661 J7CK NLRL WS2M GEJS","userId":56,"balance":24983},
{"IBAN":"MD28 I6HD GB8S CTYW SOFW T8K5","userId":59,"balance":22416},
{"IBAN":"BA06 6445 0569 4843 2859","userId":95,"balance":56779},
{"IBAN":"GR68 5596 5183 5NOF LO00 HLBF 27D","userId":255,"balance":21492},
{"IBAN":"GB92 USIF 9088 7728 1262 32","userId":74,"balance":66442},
{"IBAN":"DO71 OR4H 3490 2250 8883 3832 9810","userId":44,"balance":61051},
{"IBAN":"SM65 K054 4113 720V JZZO 9QJJ 2EY","userId":175,"balance":37175},
{"IBAN":"FR77 8190 7624 24IO YYIL UPSB R92","userId":254,"balance":74923},
{"IBAN":"IS55 5611 8652 3118 0025 5061 15","userId":6,"balance":17085},
{"IBAN":"GT74 QLSZ G2LZ MAAS 1NEV 0REZ UXJS","userId":263,"balance":24295},
{"IBAN":"MD69 DAMS EDUX M7XT CJHH V4PC","userId":127,"balance":13380},
{"IBAN":"TR04 6443 5FIG 6JB9 D6RN FSOX CW","userId":13,"balance":73878},
{"IBAN":"GL36 8337 3999 7599 46","userId":133,"balance":91011},
{"IBAN":"ES52 1128 0808 4465 4913 5115","userId":194,"balance":-323},
{"IBAN":"GR73 7390 248W 0LTS M9GV P4QU FVD","userId":171,"balance":16774},
{"IBAN":"MU34 LGDR 2364 3331 7103 5176 364X KH","userId":53,"balance":35120},
{"IBAN":"FR78 8492 0296 97PS 4YM3 YV6G D60","userId":282,"balance":91046},
{"IBAN":"MR70 4773 0855 6471 2059 1797 456","userId":244,"balance":37969},
{"IBAN":"FR44 8982 8178 44TW F3KL RAPF W74","userId":287,"balance":90112},
{"IBAN":"NO35 6354 0269 711","userId":274,"balance":45288},
{"IBAN":"FR17 0755 6506 962X 8VNX 2KIA T43","userId":135,"balance":3937},
{"IBAN":"PT91 3376 0469 0752 0450 6627 1","userId":205,"balance":87368},
{"IBAN":"AL85 2048 1627 LPSF VTV4 C1PW IFYC","userId":18,"balance":99140},
{"IBAN":"KZ36 2635 EU4V EKKH R9OW","userId":283,"balance":27389},
{"IBAN":"FR36 7460 7460 92K5 IVN4 N0WB E96","userId":64,"balance":92383},
{"IBAN":"IE64 LDFI 4595 8343 9050 91","userId":236,"balance":18133},
{"IBAN":"RS57 4765 4285 3064 4605 48","userId":9,"balance":67979},
{"IBAN":"ES33 3073 1596 6783 3806 9500","userId":61,"balance":27084},
{"IBAN":"AD15 3856 6968 NWQ3 JH6K CHTL","userId":246,"balance":91155},
{"IBAN":"EE57 2299 1881 7950 8053","userId":37,"balance":58035},
{"IBAN":"FR72 2042 7416 02WE UMSH UKKC 441","userId":32,"balance":62934},
{"IBAN":"DO49 4MYD 0146 2745 5791 4738 3058","userId":158,"balance":38066},
{"IBAN":"CY17 0408 0913 PJLX FNIS QH4Q ZPFR","userId":40,"balance":2135},
{"IBAN":"CZ13 8049 6088 5774 7473 4406","userId":8,"balance":23160},
{"IBAN":"LI86 4245 1867 SAYP M3K6 V","userId":221,"balance":88429},
{"IBAN":"DO96 C9NI 2417 9981 8245 6384 7277","userId":59,"balance":27575},
{"IBAN":"FR80 1849 8436 681P ZLXA F9EY 619","userId":65,"balance":58338},
{"IBAN":"DK22 8673 1437 0972 00","userId":304,"balance":97520},
{"IBAN":"MU37 RJRK 9764 4340 7328 0460 039Y LN","userId":115,"balance":84230},
{"IBAN":"FR10 0294 4832 47OM U2O3 0ETB D77","userId":143,"balance":114},
{"IBAN":"FI02 9910 0204 5379 50","userId":30,"balance":14652},
{"IBAN":"MK47 992M SASY Q2BT X89","userId":131,"balance":46415},
{"IBAN":"FI80 2679 4037 0258 27","userId":63,"balance":51320},
{"IBAN":"AZ19 MIUD HHGQ 1QBK NCAO THEG OPJZ","userId":127,"balance":80038},
{"IBAN":"FR97 4427 3181 39P2 VAJM QN2B C94","userId":291,"balance":47875},
{"IBAN":"HR82 2102 8774 8616 4693 3","userId":56,"balance":46640},
{"IBAN":"NL90 XXQX 7274 0374 87","userId":19,"balance":7985},
{"IBAN":"VG80 CSVT 0476 6572 8267 7387","userId":104,"balance":46869},
{"IBAN":"LI36 2231 6YL8 ENSB SHYY M","userId":210,"balance":60154},
{"IBAN":"DK77 6957 1432 4647 36","userId":278,"balance":3328},
{"IBAN":"FR12 5145 0934 29NL U2GE EPCQ V69","userId":82,"balance":24533},
{"IBAN":"TN24 3810 4920 9372 3875 9362","userId":198,"balance":16390},
{"IBAN":"IS86 9435 5204 9804 1377 4673 92","userId":67,"balance":84187},
{"IBAN":"MD24 XXGA 2S1L 4W1P 2NCC 1W7P","userId":223,"balance":14567},
{"IBAN":"ES92 8039 8082 6837 8462 7028","userId":25,"balance":9260},
{"IBAN":"LI60 5092 0XPP U5GU 5FXF B","userId":227,"balance":86353},
{"IBAN":"MR13 3855 2215 0943 0804 9923 610","userId":308,"balance":76827},
{"IBAN":"PT32 9822 6734 7722 3342 6903 6","userId":140,"balance":12724},
{"IBAN":"CH25 5224 1QYE VB9Q J63P M","userId":42,"balance":23513},
{"IBAN":"ES24 3275 6991 1761 5176 5246","userId":214,"balance":36270},
{"IBAN":"NO72 7365 0679 052","userId":273,"balance":832},
{"IBAN":"HR54 7388 7810 9812 2229 3","userId":24,"balance":13240},
{"IBAN":"MC26 0280 6106 11W4 YW4F JSB8 L11","userId":57,"balance":88401},
{"IBAN":"FR11 3358 1255 13SS LZOU MKSM P41","userId":70,"balance":48270},
{"IBAN":"GB17 CGOM 3902 4016 6841 55","userId":47,"balance":62602},
{"IBAN":"GR51 9728 9938 J0ZV 8ESX MKRS JZH","userId":52,"balance":28962},
{"IBAN":"RO55 BSTK 5ZWP FOYE 3GLX LI9Y","userId":69,"balance":95411},
{"IBAN":"HR52 4880 7315 0016 2547 3","userId":44,"balance":85607},
{"IBAN":"MK68 125Q YTF6 1DY2 R42","userId":151,"balance":48716},
{"IBAN":"BR49 7930 2474 8237 0550 7117 393I 3","userId":93,"balance":82976},
{"IBAN":"CZ92 6127 9123 4986 3694 2859","userId":200,"balance":30605},
{"IBAN":"BA84 5970 3660 2921 1361","userId":284,"balance":96689},
{"IBAN":"IT36 X677 1061 685M I4S3 NZ1Q AGY","userId":82,"balance":5115},
{"IBAN":"FR82 2671 4481 77DJ 4MYD 6EF8 D70","userId":36,"balance":79562},
{"IBAN":"DE54 5800 1357 4558 3120 85","userId":89,"balance":80900},
{"IBAN":"PS67 IGUJ QAEX X0JH UOS2 SRX5 CEPI T","userId":280,"balance":72684},
{"IBAN":"GE51 SY99 1382 2200 0264 03","userId":74,"balance":19872},
{"IBAN":"IL07 9074 7618 8827 9161 346","userId":204,"balance":83539},
{"IBAN":"LI62 5282 5FNA MMQB GZBN S","userId":180,"balance":15174},
{"IBAN":"LB15 4864 ERVU NGB5 XUDS PVTR 3RYB","userId":30,"balance":64111},
{"IBAN":"IT89 J177 3783 465U GGYR 4Z4B ZDF","userId":242,"balance":99818},
{"IBAN":"AZ66 NSLQ WHDY POKR XXC1 VRVW G3LM","userId":222,"balance":99268},
{"IBAN":"FI70 8718 2000 6544 09","userId":256,"balance":88292},
{"IBAN":"GT53 H2SR 7WA9 IHW4 1RNL XHBO BDFA","userId":187,"balance":75497},
{"IBAN":"SK39 3239 6388 9600 9666 2875","userId":225,"balance":27843},
{"IBAN":"FR31 8900 2475 18MW 76OU DPTK S73","userId":99,"balance":86616},
{"IBAN":"VG69 MVYY 9784 8323 5030 0353","userId":57,"balance":54746},
{"IBAN":"KW14 UGOM T2AI INMM LTOW KE0F YAJU X8","userId":282,"balance":84806},
{"IBAN":"TR50 6583 2NU6 K9EH PHZH GTJI NI","userId":162,"balance":20006},
{"IBAN":"TR35 5490 97NO Z6OW LEDO AN6W UL","userId":179,"balance":25409},
{"IBAN":"BR71 8149 2204 7808 1261 0044 346K T","userId":285,"balance":778},
{"IBAN":"BR25 5954 1385 1996 6870 8298 278E J","userId":201,"balance":38059},
{"IBAN":"GB86 APDL 0269 7679 1481 96","userId":203,"balance":66823},
{"IBAN":"FR24 2916 6895 86T6 0AXK JU0X U12","userId":127,"balance":55803},
{"IBAN":"SE30 7476 1358 7369 9398 8935","userId":69,"balance":6899},
{"IBAN":"EE74 8193 2500 6136 7870","userId":243,"balance":84114},
{"IBAN":"PK36 CMUV 1C93 IPWY S84R QWE1","userId":267,"balance":-98},
{"IBAN":"FO16 3473 5876 3296 85","userId":218,"balance":92490},
{"IBAN":"FR70 6795 4380 47RZ FQGW QHLQ 069","userId":43,"balance":7582},
{"IBAN":"MR23 5249 1113 9792 4274 3709 322","userId":193,"balance":48034},
{"IBAN":"PT80 1254 2140 9531 2824 8296 3","userId":217,"balance":91161},
{"IBAN":"IE77 TBVL 8490 0299 2151 31","userId":226,"balance":29981},
{"IBAN":"IS78 2723 1196 6535 7780 1668 79","userId":9,"balance":28210},
{"IBAN":"LV65 FORT ECPB DYCX QYTJ F","userId":285,"balance":-105},
{"IBAN":"IE46 VRJJ 5291 7375 1787 28","userId":7,"balance":18433},
{"IBAN":"FO88 7415 3224 9969 97","userId":152,"balance":71647},
{"IBAN":"FR20 4742 0072 3399 JY7B ZV9V E91","userId":37,"balance":17543},
{"IBAN":"AD98 9528 7694 IAAP 3QOF 0IZ1","userId":97,"balance":63309},
{"IBAN":"MC86 4599 7620 197E OVSJ XRVI 439","userId":270,"balance":32777},
{"IBAN":"NO72 1569 0358 001","userId":102,"balance":62953},
{"IBAN":"CY03 5810 5233 CC1Q QBLQ POIM XJNS","userId":191,"balance":37008},
{"IBAN":"FR13 7941 2866 68WS PWYT H1SD Y30","userId":60,"balance":24321},
{"IBAN":"MC64 1742 8496 792T EILX VIKJ Q88","userId":81,"balance":948},
{"IBAN":"CR04 7267 1650 3057 0183 0","userId":89,"balance":71344},
{"IBAN":"GE34 AD19 7200 2243 9995 89","userId":265,"balance":36246},
{"IBAN":"LI11 7933 1DK4 ZJRW D7L6 J","userId":240,"balance":44137},
{"IBAN":"AL62 3725 5661 XPZR LUHL KYJT AZC5","userId":240,"balance":97016},
{"IBAN":"MK49 941L DGMS WSPE K83","userId":65,"balance":10024},
{"IBAN":"MT66 QYVQ 5610 03BT LGXI MOAU UWT9 NON","userId":215,"balance":55574},
{"IBAN":"FR58 3913 2748 178S 0WQY AEP9 J04","userId":16,"balance":14772},
{"IBAN":"GR73 9207 383Y XSIP FM18 KAZU N0P","userId":274,"balance":95251},
{"IBAN":"LB27 8052 5M0M VYTH D7IN KKX2 61GC","userId":218,"balance":85911},
{"IBAN":"FR57 3611 2031 02JP BMED 8BBJ V10","userId":282,"balance":99518},
{"IBAN":"ME14 1288 6607 9065 7487 91","userId":66,"balance":80158},
{"IBAN":"AL46 4249 6094 4XLW 10JA CK8J LPJN","userId":148,"balance":12168},
{"IBAN":"LB57 9188 GROA PC71 PEVT JPCS LZSH","userId":170,"balance":20196},
{"IBAN":"RO78 WVHL L2AM JBRY 7OOR 5TMP","userId":248,"balance":42021},
{"IBAN":"MD46 WIBT AOYY BGDV JQA9 GU4H","userId":91,"balance":22019},
{"IBAN":"MD83 B4II B9GP LFEZ EW9S V8TM","userId":289,"balance":71048},
{"IBAN":"FR49 3295 0541 00LI O7CE WZKF P79","userId":42,"balance":8268},
{"IBAN":"SI34 8482 1597 1558 268","userId":103,"balance":78195},
{"IBAN":"CY42 3490 6395 SAXD 9GPP SAEY ARMP","userId":188,"balance":54900},
{"IBAN":"CH96 4641 9JUH EULP N4SA X","userId":197,"balance":72244},
{"IBAN":"MU11 IAWT 6949 6296 1957 0797 017A NG","userId":65,"balance":15411},
{"IBAN":"PL30 5807 1655 7309 1881 5264 0432","userId":195,"balance":3522},
{"IBAN":"GE83 IX78 4015 8283 6478 89","userId":116,"balance":81757},
{"IBAN":"NO11 5898 0278 512","userId":6,"balance":74895},
{"IBAN":"IS82 1223 4279 5471 8682 1013 49","userId":133,"balance":48400},
{"IBAN":"FR19 6520 0779 12PQ UNPV KL7Y M27","userId":65,"balance":-964},
{"IBAN":"BG89 MYID 6908 79OV PC2N MO","userId":109,"balance":41703},
{"IBAN":"LT82 5962 1274 2208 0178","userId":243,"balance":30471},
{"IBAN":"KW58 JSDC NOCF S3VY HSQW MQAH 5EOK 9S","userId":131,"balance":54426},
{"IBAN":"GE07 MZ84 2405 4395 6091 28","userId":214,"balance":91971},
{"IBAN":"SI19 9018 5382 9260 998","userId":278,"balance":21462},
{"IBAN":"GE04 YQ84 5154 2582 4510 45","userId":90,"balance":80044},
{"IBAN":"GT45 FLNM LGQA LG1W RXNO QUEQ GRW2","userId":65,"balance":78935},
{"IBAN":"FR84 7030 9574 045N MUF4 2NTQ R34","userId":262,"balance":72136},
{"IBAN":"PT15 6743 4644 2035 6849 0433 9","userId":264,"balance":81295},
{"IBAN":"MK28 7229 R9B2 QU4N P27","userId":156,"balance":78944},
{"IBAN":"FR54 0564 7123 16MW HHRD 0NVA 418","userId":209,"balance":87171},
{"IBAN":"PK86 NZPQ PPYD K2QS W22X WMKV","userId":201,"balance":41903},
{"IBAN":"PT58 6436 1928 5387 2540 7072 6","userId":245,"balance":38966},
{"IBAN":"HR60 2578 6628 9911 5936 2","userId":205,"balance":84921},
{"IBAN":"ME85 0351 7555 1757 4814 68","userId":121,"balance":5376},
{"IBAN":"TR70 1932 18TG C6DV CQAO XUAG 0L","userId":276,"balance":82900},
{"IBAN":"FR65 0394 1476 99FW 7PT7 M9U6 033","userId":147,"balance":83230},
{"IBAN":"GB71 UTNR 0908 3638 9374 28","userId":35,"balance":78038},
{"IBAN":"RO79 UQCW UUAV YVBE VCQZ 55WQ","userId":88,"balance":26668},
{"IBAN":"FR61 9472 1395 60HS WZWL BSFL M12","userId":74,"balance":4975},
{"IBAN":"AZ71 DAET 2SBC LZLZ LOFN XPJA SSY1","userId":267,"balance":23245},
{"IBAN":"SA44 89GH EQIT MDNM BIPO IVYK","userId":297,"balance":95974},
{"IBAN":"BE38 9889 0371 7151","userId":62,"balance":17612},
{"IBAN":"FO10 2422 6404 4315 41","userId":242,"balance":1231},
{"IBAN":"FO81 1688 1061 3689 60","userId":292,"balance":96375},
{"IBAN":"SA79 17NW J0SR XQHE YN9X DFBZ","userId":3,"balance":57801},
{"IBAN":"VG32 UIMC 3689 9717 8228 1384","userId":255,"balance":51822},
{"IBAN":"FR54 4125 2868 61AE AKTW W98G R79","userId":117,"balance":62382},
{"IBAN":"HU80 4379 2602 2514 8185 1290 3794","userId":211,"balance":65145},
{"IBAN":"MK47 210V VMJT MFRO R08","userId":23,"balance":54870},
{"IBAN":"LT45 2644 7485 4078 4753","userId":143,"balance":40131},
{"IBAN":"FI89 5072 0559 0667 22","userId":104,"balance":32264},
{"IBAN":"VG75 RQCX 0447 0607 7431 5936","userId":94,"balance":58527},
{"IBAN":"FR38 2572 4104 223Z 4GF7 M0RP W60","userId":183,"balance":96986},
{"IBAN":"DK65 7395 5330 6361 31","userId":121,"balance":73213},
{"IBAN":"FR67 5014 0061 34TK UNB3 FKOE J73","userId":32,"balance":74442},
{"IBAN":"FR14 5598 2806 85AR XH61 PTZD 577","userId":31,"balance":13211},
{"IBAN":"HU44 4071 0155 5521 6239 5718 0758","userId":75,"balance":64741},
{"IBAN":"FR30 4739 6005 11YE ZMD4 MVZA C62","userId":16,"balance":94920},
{"IBAN":"KZ73 971K RHCH KW03 OMVS","userId":196,"balance":65833},
{"IBAN":"IT97 P204 1169 452Y ZRUU XTL2 9LX","userId":127,"balance":29881},
{"IBAN":"GR17 9331 822R FTCQ KZK8 9V0X 6IT","userId":82,"balance":45392},
{"IBAN":"GL12 6599 4188 6541 97","userId":242,"balance":82021},
{"IBAN":"MU34 XCXU 9317 0480 0462 2638 798Q CA","userId":86,"balance":60832},
{"IBAN":"BR43 5499 1604 7900 7006 8154 405B U","userId":252,"balance":71751},
{"IBAN":"KZ03 761A AOXT QLDJ OPPB","userId":241,"balance":40455},
{"IBAN":"BR52 9388 6218 1073 1676 7357 392I F","userId":296,"balance":82371},
{"IBAN":"EE10 9626 7369 0065 0172","userId":58,"balance":47658},
{"IBAN":"FR87 2606 1421 46DZ WRGS IHWZ H19","userId":279,"balance":34438},
{"IBAN":"NO79 0559 3081 377","userId":101,"balance":52113},
{"IBAN":"BA35 6849 4182 8528 1445","userId":232,"balance":92215},
{"IBAN":"MR15 0064 5930 1004 2479 1627 594","userId":179,"balance":38792},
{"IBAN":"HU53 8507 6672 1378 5649 9768 3655","userId":46,"balance":37108},
{"IBAN":"FR98 0870 0188 75QS AWVA WFNU N38","userId":256,"balance":19592},
{"IBAN":"CH85 0642 0ZQY ART4 SBR7 J","userId":202,"balance":95439},
{"IBAN":"ME43 6751 0586 7480 5407 65","userId":101,"balance":15344},
{"IBAN":"SM59 X491 4685 924A SUY4 PBPO FM8","userId":38,"balance":94115},
{"IBAN":"SE12 6630 5206 0497 1442 1877","userId":221,"balance":71168},
{"IBAN":"HU70 6414 4187 5344 7951 8970 0431","userId":128,"balance":73126},
{"IBAN":"PT24 9085 5576 7177 9608 9284 9","userId":20,"balance":29571},
{"IBAN":"IT88 P541 1464 160S 9LQE X2WX YWW","userId":270,"balance":14163},
{"IBAN":"RS58 3135 6521 5202 8237 93","userId":161,"balance":25955},
{"IBAN":"EE69 5921 8602 5976 9657","userId":146,"balance":40555},
{"IBAN":"VG45 BEYY 6814 1181 8986 0634","userId":147,"balance":85925},
{"IBAN":"AT31 6600 0099 8450 6483","userId":275,"balance":54020},
{"IBAN":"LU28 024F SQ9T JCFB T8IO","userId":183,"balance":77926},
{"IBAN":"LB55 2590 3DZS 6A9O IAYT 660T 0MVW","userId":82,"balance":50304},
{"IBAN":"FR35 4658 5294 19RJ UKEK C4AS E35","userId":238,"balance":4573},
{"IBAN":"DO91 K6OL 1024 3610 0540 9699 1143","userId":288,"balance":57886},
{"IBAN":"FR50 8784 3191 04AJ LB0B M6ZQ R08","userId":261,"balance":12087},
{"IBAN":"ES20 5243 4484 1390 5415 7743","userId":243,"balance":76768},
{"IBAN":"FR11 2589 6100 15IC SIVU MGDE D20","userId":175,"balance":72813},
{"IBAN":"VG35 ESZS 8296 2611 8939 9052","userId":124,"balance":34301},
{"IBAN":"IL95 4263 7418 5148 7136 898","userId":35,"balance":56835},
{"IBAN":"CY79 2206 2742 R8S2 FMKF VV2I DRHM","userId":95,"balance":3752},
{"IBAN":"FR52 7767 3104 31BU WCZG KD6V F83","userId":180,"balance":57288},
{"IBAN":"FR91 1073 1168 13GK J9WH EWSK I87","userId":23,"balance":2895},
{"IBAN":"IT35 Q634 6031 961U KTJ6 Z1UI ZVA","userId":51,"balance":18390},
{"IBAN":"SE40 0427 2198 7449 3399 9178","userId":23,"balance":50071},
{"IBAN":"PK83 UZIJ DZQE XPPG GFEB KWFL","userId":295,"balance":99004},
{"IBAN":"ME09 0542 1129 8987 3926 54","userId":20,"balance":67699},
{"IBAN":"VG79 QQTN 5809 1524 6648 7323","userId":202,"balance":51558},
{"IBAN":"PS61 KLBQ Y7JD QVWN 5VEX XAXE DKY1 J","userId":290,"balance":58894},
{"IBAN":"KW72 PSBB TQLE HGGY COC6 WQVG DHBQ PQ","userId":21,"balance":56144},
{"IBAN":"RO95 XTFA UYPU XFQM I5B1 M17P","userId":223,"balance":58712},
{"IBAN":"BR18 4672 4879 1995 1976 0453 655N X","userId":60,"balance":43390},
{"IBAN":"KZ17 591U KCCX 2QF6 0Z2D","userId":33,"balance":54712},
{"IBAN":"FR37 4128 9982 97OI D3LD YZWQ O65","userId":92,"balance":80982},
{"IBAN":"DK05 7446 5175 2725 28","userId":202,"balance":19021},
{"IBAN":"LI27 3331 0XXE 8VLB 4Q26 3","userId":172,"balance":86793},
{"IBAN":"BH49 WCWQ A3FB HTNA CUZW DA","userId":91,"balance":91121},
{"IBAN":"LI33 0475 7NB5 3X2C PFAL B","userId":178,"balance":5209},
{"IBAN":"MD72 YWWJ WLXO XXVN AC5M 7EZE","userId":176,"balance":22318},
{"IBAN":"TN88 2944 0396 5872 4956 1601","userId":102,"balance":82687},
{"IBAN":"IL42 2732 3099 3587 1935 639","userId":225,"balance":85377},
{"IBAN":"MC35 0191 1658 05MH KXLT DGDU J88","userId":6,"balance":-441},
{"IBAN":"MR21 9677 3624 8010 9997 2651 565","userId":89,"balance":6257},
{"IBAN":"NL29 MQWZ 0807 9958 63","userId":30,"balance":6653},
{"IBAN":"SK91 4592 6394 6532 3092 1357","userId":286,"balance":-972},
{"IBAN":"GE44 OV24 7298 6509 5372 98","userId":226,"balance":27710},
{"IBAN":"CR71 4489 7025 0677 8373 5","userId":33,"balance":61790},
{"IBAN":"IT72 C636 2700 879O VC99 N3SN VWW","userId":71,"balance":18604},
{"IBAN":"FR65 2912 1074 81UO 0WGL XF8R I22","userId":268,"balance":80234},
{"IBAN":"CY77 0318 0434 PUBG 9GVB EIAZ Q3WT","userId":234,"balance":98986},
{"IBAN":"SA17 07FP P5N0 MEXD 5A9O JDXQ","userId":281,"balance":84105},
{"IBAN":"SK12 4995 6853 4465 7750 9247","userId":29,"balance":9836},
{"IBAN":"BG68 BZIX 7984 58HR MORI 83","userId":21,"balance":41553},
{"IBAN":"MD23 QYPV MDZN ZMTB 6ZZB URJZ","userId":106,"balance":17470},
{"IBAN":"RS65 4681 3542 1370 2335 94","userId":242,"balance":15544},
{"IBAN":"VG13 POFH 4432 3844 6808 9003","userId":307,"balance":54842},
{"IBAN":"FR47 0963 3286 29CG 00ZX UHAQ G01","userId":167,"balance":79912},
{"IBAN":"SE25 1255 6977 2926 5689 1768","userId":305,"balance":97165},
{"IBAN":"GR50 3958 7047 WCFH VPJV MSIJ EIS","userId":122,"balance":59149},
{"IBAN":"BR76 1233 7527 8729 1000 4498 406O 1","userId":310,"balance":43890},
{"IBAN":"AT27 1858 5942 4073 7257","userId":129,"balance":89463},
{"IBAN":"NL45 EPUC 7582 3890 81","userId":3,"balance":50404},
{"IBAN":"DO44 WCYT 6799 3589 5428 8800 2905","userId":226,"balance":88942},
{"IBAN":"FR91 6327 3099 1672 ZDYZ LBUV A30","userId":216,"balance":34014},
{"IBAN":"GB60 GLJY 5621 1974 7421 70","userId":42,"balance":4998},
{"IBAN":"AL04 7337 0669 RIV9 HKXO XCCP JOWN","userId":130,"balance":10038},
{"IBAN":"SA94 16RJ L5EM AXSW MRTZ JU7H","userId":132,"balance":59901},
{"IBAN":"KW87 PXPY UVZC ROZB HNJA CCGG UKTT FQ","userId":113,"balance":16703},
{"IBAN":"CY54 9981 5360 QFNM WCY7 TPVH I3KY","userId":139,"balance":65384},
{"IBAN":"NO72 6722 3194 630","userId":41,"balance":78162},
{"IBAN":"LI35 9468 4YNA Y7I4 TVC0 C","userId":242,"balance":86264},
{"IBAN":"PS06 KGLG 67YU DTS4 JAVU OPND EFCB T","userId":198,"balance":20262},
{"IBAN":"ME35 4526 9755 8169 4327 71","userId":103,"balance":75178},
{"IBAN":"PS91 IIMH S7QT L5UA BBSP 5UCU Q45M C","userId":54,"balance":13649},
{"IBAN":"KW68 FLFR GAJR QZGV 72WT DEPN YOPY OI","userId":251,"balance":22005},
{"IBAN":"IE55 JZQH 6321 9750 2820 57","userId":193,"balance":36491},
{"IBAN":"DE80 2027 0844 8442 1769 39","userId":114,"balance":94425},
{"IBAN":"LT50 6560 7271 5950 6744","userId":3,"balance":63227},
{"IBAN":"CH10 8125 2ZCQ 3ICH AIJ6 Q","userId":69,"balance":24047},
{"IBAN":"TR37 1885 0MLY X9PL YHZ0 JOYK YS","userId":11,"balance":60154},
{"IBAN":"GE77 PJ97 2628 0669 6605 25","userId":19,"balance":7668},
{"IBAN":"KW77 IYZB ZIBH 2JTX XZP6 V0PN WJFX HN","userId":288,"balance":96625},
{"IBAN":"IL46 4533 4581 9952 0618 606","userId":48,"balance":12870},
{"IBAN":"EE97 8658 3674 0520 0766","userId":276,"balance":35458},
{"IBAN":"NL22 JHJJ 8187 3105 28","userId":292,"balance":65832},
{"IBAN":"GB75 SXBW 9696 1636 3506 74","userId":58,"balance":48123},
{"IBAN":"BR18 1859 0824 2788 8732 7990 431V D","userId":139,"balance":7530},
{"IBAN":"GL85 5332 0310 0025 44","userId":8,"balance":37977},
{"IBAN":"FR28 2380 5671 92MI PPMK 9GHD I34","userId":306,"balance":7502},
{"IBAN":"GE84 BX73 8476 8428 3232 41","userId":238,"balance":52284},
{"IBAN":"IS29 6675 1802 6818 6315 2418 35","userId":222,"balance":36804},
{"IBAN":"FR88 0690 4608 913O WIBE NNMG B20","userId":25,"balance":92795},
{"IBAN":"FR86 2149 5908 75V4 QPTQ J0IX 944","userId":61,"balance":81443},
{"IBAN":"GT68 KZJH A49H ZNQV JKY7 F4DC BGRJ","userId":204,"balance":42320},
{"IBAN":"AD26 4192 3726 BUZ2 VGIQ W4QD","userId":120,"balance":27412},
{"IBAN":"FR17 8651 4126 29ST BVFO XCQE W39","userId":270,"balance":62514},
{"IBAN":"PS26 RHAD OLR5 RE4F 8FGA VMUF GGHH Z","userId":157,"balance":21310},
{"IBAN":"FR57 8731 0822 50SQ CQPR XWBD N90","userId":182,"balance":36798},
{"IBAN":"BH79 XRQH L0SZ NZPL X0ZQ LP","userId":160,"balance":48772},
{"IBAN":"CR70 7886 1511 0384 7573 0","userId":79,"balance":93135},
{"IBAN":"LI95 5330 8EFL P5GT 734F C","userId":246,"balance":47928},
{"IBAN":"BE48 3950 0337 6828","userId":305,"balance":64271},
{"IBAN":"ME96 3431 4529 0323 9991 40","userId":220,"balance":49447},
{"IBAN":"FI56 0413 8946 5410 63","userId":8,"balance":28281},
{"IBAN":"GI30 FDGW CWPD RI3A YJIH YPA","userId":184,"balance":57608},
{"IBAN":"LU66 151R 2H5P AUO3 EKZS","userId":152,"balance":46106},
{"IBAN":"NO75 0872 2060 113","userId":50,"balance":98053},
{"IBAN":"FO56 5364 6391 2173 57","userId":277,"balance":56415},
{"IBAN":"FR11 6857 3404 97GO FC0N EJV5 O69","userId":206,"balance":93052},
{"IBAN":"SI95 5500 5206 5632 920","userId":257,"balance":71507},
{"IBAN":"SE16 4974 2810 2570 1684 4813","userId":164,"balance":16084},
{"IBAN":"SI27 9698 1948 5556 764","userId":114,"balance":14375},
{"IBAN":"FR50 9033 6544 72FM K6V6 SXAO L66","userId":68,"balance":28783},
{"IBAN":"SA83 79AB GVKN COW2 PVZP 9JFZ","userId":242,"balance":68535},
{"IBAN":"SI96 5189 6564 8464 432","userId":83,"balance":24509},
{"IBAN":"PK04 RSKA ZUCD KYKK WQ1T YNX8","userId":79,"balance":17410},
{"IBAN":"BG30 FSJZ 7416 22BK HT0H 0L","userId":281,"balance":48563},
{"IBAN":"RS84 1977 8982 7087 7243 70","userId":16,"balance":27804},
{"IBAN":"FR86 2235 2028 78UM KIME A5KW I62","userId":278,"balance":49424},
{"IBAN":"AL89 0683 7624 6H9Z Y075 FENN S2TJ","userId":196,"balance":69659},
{"IBAN":"FI20 4366 0122 8136 30","userId":66,"balance":77163},
{"IBAN":"FR07 9362 1025 23XJ LXTQ PJ1F 861","userId":238,"balance":33852},
{"IBAN":"DO32 L8WJ 1816 2973 9804 8722 6960","userId":170,"balance":93034},
{"IBAN":"BH61 WKKJ GS5Z NDGU BMXV KW","userId":91,"balance":80149},
{"IBAN":"SI50 2784 4541 9447 094","userId":244,"balance":3956},
{"IBAN":"IE75 TUWW 7608 8803 3327 67","userId":17,"balance":87213},
{"IBAN":"NL23 RLCI 3871 2405 90","userId":150,"balance":41371},
{"IBAN":"SE48 2484 2810 2990 3508 7495","userId":268,"balance":823},
{"IBAN":"LU77 936G NHB0 7062 BJBT","userId":217,"balance":34989},
{"IBAN":"BA82 0523 4109 2756 5675","userId":279,"balance":4027},
{"IBAN":"CY61 4685 2128 I24K JWCN JBB8 XWVS","userId":19,"balance":61787},
{"IBAN":"GI29 WVNW GSRW OBEE MARN 1FE","userId":230,"balance":2046},
{"IBAN":"FI12 4614 3260 0988 12","userId":103,"balance":73073},
{"IBAN":"LV16 ILVH 9KIG F4ZF CVNW P","userId":126,"balance":37270},
{"IBAN":"LB92 8342 SZJJ Z653 AROA IOJT WPL2","userId":173,"balance":28917},
{"IBAN":"KZ78 396B N1UB OV4G K0IK","userId":140,"balance":45647},
{"IBAN":"MR32 5696 8028 1297 7504 0193 379","userId":234,"balance":35677},
{"IBAN":"HU87 1115 8851 2927 9865 1735 4749","userId":164,"balance":58116},
{"IBAN":"SI35 9170 7143 4324 129","userId":61,"balance":3970},
{"IBAN":"FR43 8219 6247 20H1 MPZ4 CC4A K05","userId":221,"balance":36965},
{"IBAN":"FR18 8802 5339 439D K05K XBH2 W46","userId":135,"balance":96612},
{"IBAN":"DO76 PY2O 5300 8197 2078 4830 0993","userId":132,"balance":30894},
{"IBAN":"PK07 MTAM BEGP F6ZO U1LA B8L3","userId":117,"balance":64848},
{"IBAN":"SM47 C379 8021 5842 UBMR RCNV DV4","userId":50,"balance":26051},
{"IBAN":"DE64 7681 6476 3409 6301 79","userId":207,"balance":75149},
{"IBAN":"FR06 8384 7858 26U3 4YY7 XOYU W34","userId":195,"balance":93972},
{"IBAN":"CH98 9524 8WQL HBMZ IDLE C","userId":243,"balance":96643},
{"IBAN":"PS61 ONRX QCWQ KBCX EIRI NXTH GQVK A","userId":286,"balance":38090},
{"IBAN":"LV21 IZBB N3CY PBAN KPUP J","userId":238,"balance":98885},
{"IBAN":"AZ52 EGEV YGYZ NUTO NZCI HGVJ V1CE","userId":199,"balance":62698},
{"IBAN":"DO57 L5KW 6937 3385 5183 6949 3437","userId":85,"balance":86412},
{"IBAN":"AE08 0879 3286 8308 8100 827","userId":107,"balance":20388},
{"IBAN":"KZ57 852S IHWS N6EF ETUJ","userId":145,"balance":85650},
{"IBAN":"KZ44 697J IGMS 7URM A8XZ","userId":301,"balance":10200},
{"IBAN":"SE29 8554 1614 2198 0027 1730","userId":155,"balance":34801},
{"IBAN":"CR51 4251 3561 9920 8021 6","userId":100,"balance":18463},
{"IBAN":"FR36 6164 0514 86KI BRH0 O7LN E23","userId":5,"balance":61596},
{"IBAN":"FR37 3858 4363 33VP RYIR Y3CF G70","userId":81,"balance":78584},
{"IBAN":"SA18 446B O5XX 7EIX EDZI JKNX","userId":3,"balance":11007},
{"IBAN":"FR64 6064 9554 76IQ 0TKE SPER 696","userId":257,"balance":84868},
{"IBAN":"DK52 0863 4299 4363 17","userId":153,"balance":64754},
{"IBAN":"KZ37 264P JXMX ZWJU KYKB","userId":38,"balance":95930},
{"IBAN":"MD22 NQYJ AKRF WVZN 4JFT FHXE","userId":250,"balance":87754},
{"IBAN":"FR72 2857 6362 86UN H5FX VQG0 S47","userId":63,"balance":59601},
{"IBAN":"MD95 12KJ OC1P 0S9P B5WN VM3H","userId":89,"balance":48000},
{"IBAN":"GL94 3378 6562 7885 50","userId":300,"balance":4772},
{"IBAN":"FR85 9998 5957 33Q3 OCY2 VNQK 241","userId":240,"balance":77003},
{"IBAN":"IT63 J845 1523 509H EEAX Q25S GP3","userId":255,"balance":26415},
{"IBAN":"MC86 8873 3571 77JE CRVW 2YFD I04","userId":203,"balance":85012},
{"IBAN":"FR74 1873 4643 39GX PGRP YLXT B38","userId":310,"balance":37315},
{"IBAN":"LT87 9436 1011 9025 0223","userId":118,"balance":57200},
{"IBAN":"FR66 3036 9838 62K4 8AOG YBG2 L20","userId":129,"balance":45128},
{"IBAN":"NL39 PLVV 6047 3730 20","userId":62,"balance":88195},
{"IBAN":"SM11 M933 6194 963N I0RV QODZ J86","userId":266,"balance":65346},
{"IBAN":"FR43 2389 7602 32AO KNWN T6WE K34","userId":12,"balance":45129},
{"IBAN":"FR06 0236 6861 83RH YUM4 X4QZ H90","userId":84,"balance":39581},
{"IBAN":"PS50 WYKD YOZU BW7J DJOJ UVHI MMDS G","userId":85,"balance":54110},
{"IBAN":"FR15 1094 5747 62BT PIOC JWAM 576","userId":196,"balance":53825},
{"IBAN":"LB25 6719 JNMQ SFJJ IG7F 6YTZ EI6C","userId":146,"balance":10614},
{"IBAN":"BR13 4636 7842 4385 4572 3366 844N T","userId":29,"balance":95404},
{"IBAN":"MD21 A87C V04G EOGA KE3Y HV6S","userId":265,"balance":12507},
{"IBAN":"RS82 9751 3340 4431 8821 02","userId":243,"balance":96188},
{"IBAN":"GB61 MJXH 3048 8345 6650 42","userId":124,"balance":46268},
{"IBAN":"FR93 8462 1715 16ZW 5FB4 DW3D J61","userId":94,"balance":92522},
{"IBAN":"MU32 KQXP 9288 5307 7676 0674 934P BJ","userId":198,"balance":76648},
{"IBAN":"BR90 2698 6125 0879 3064 9870 269Q X","userId":127,"balance":6282},
{"IBAN":"SA66 62U0 REOP OZX8 CBFJ XIKM","userId":211,"balance":40152},
{"IBAN":"PK40 EWCZ SRC4 KZCM UVWQ XEG1","userId":253,"balance":80462},
{"IBAN":"MU47 OXID 4815 7974 8364 9225 999O GE","userId":235,"balance":41209},
{"IBAN":"GE06 WW14 6792 9947 6865 01","userId":51,"balance":91221},
{"IBAN":"GB93 DHET 8384 2517 2732 57","userId":293,"balance":83662},
{"IBAN":"MC24 5860 7315 31GE STDH WIG1 G68","userId":145,"balance":47698},
{"IBAN":"FR58 7454 6481 991R HWXL PBFI H49","userId":217,"balance":59653},
{"IBAN":"KZ39 797N NUM2 NR1S AFVA","userId":248,"balance":93517},
{"IBAN":"FR29 7706 0263 87AO 1VNH KAPK S06","userId":170,"balance":85268},
{"IBAN":"ME36 8098 6652 2547 6626 11","userId":248,"balance":24366},
{"IBAN":"BR96 9422 4405 3794 7097 2914 058S E","userId":298,"balance":31654},
{"IBAN":"AZ33 SENO YDKD QGBS QBPQ ZPRO NADF","userId":134,"balance":16909},
{"IBAN":"KW32 RSAP 9GRR KFDU AVAO 6KM7 JMUQ L2","userId":163,"balance":80014},
{"IBAN":"SM47 Y563 3871 605Y JW2D 3VPD FC1","userId":259,"balance":31960},
{"IBAN":"FR55 5119 0784 63AT ZJU6 Y1XC W84","userId":46,"balance":77235},
{"IBAN":"FR22 0228 3658 48XB ASUW MWZL K17","userId":258,"balance":86005},
{"IBAN":"MT68 XZXQ 8769 40PB 3JG3 SRAE DALF LQW","userId":26,"balance":54839},
{"IBAN":"GR35 2562 1736 MOVF YY1R UIIR TVI","userId":140,"balance":46075},
{"IBAN":"DO05 JILH 9414 6589 6329 4091 1434","userId":278,"balance":64916},
{"IBAN":"RS32 3695 0179 3214 9157 39","userId":308,"balance":28900},
{"IBAN":"KZ92 474J TQYC NB4Y MXIX","userId":71,"balance":27663},
{"IBAN":"LU84 005G QENP XL18 XNWA","userId":265,"balance":76364},
{"IBAN":"FR75 0858 6778 71BF NIER DWB8 R05","userId":238,"balance":57017},
{"IBAN":"LB48 8022 C2VC UQRJ XEMK BF7A CNKC","userId":97,"balance":73389},
{"IBAN":"FR98 8575 6654 50FR FGV2 VD2W L09","userId":109,"balance":70894},
{"IBAN":"DO10 OUN2 1394 0309 7535 3577 1793","userId":175,"balance":20839},
{"IBAN":"MC48 3414 9756 37JY G77U ETWX I71","userId":85,"balance":2693},
{"IBAN":"FR10 1437 0363 78MC 5EKY UESB T85","userId":201,"balance":18844},
{"IBAN":"TN72 0613 2447 7163 2552 2442","userId":273,"balance":83392},
{"IBAN":"BR53 8500 9469 9022 7814 0195 824D W","userId":222,"balance":44414},
{"IBAN":"MD42 ABHO BGDK OW0Z WCCB PQSR","userId":151,"balance":91260},
{"IBAN":"HU23 7785 3684 7111 8011 7826 1853","userId":305,"balance":54251},
{"IBAN":"CH24 1933 8U9Y YW1O RFNR 7","userId":45,"balance":4579},
{"IBAN":"GL05 4469 6811 4064 75","userId":298,"balance":15541},
{"IBAN":"HR92 9833 2706 7163 5757 4","userId":265,"balance":98733},
{"IBAN":"FR79 1987 8530 640I 2KV6 7COF W62","userId":55,"balance":32642},
{"IBAN":"AD17 0497 8577 B0YT QT8Y CTP7","userId":84,"balance":41197},
{"IBAN":"PT23 2960 9421 6317 3441 7175 0","userId":57,"balance":14448},
{"IBAN":"HR22 0034 5159 8048 7642 6","userId":205,"balance":86794},
{"IBAN":"KW42 CKHT JPM0 DDYX 5ORR ND5E 1FPJ Z6","userId":191,"balance":59941},
{"IBAN":"CR74 7711 8316 2144 6021 7","userId":299,"balance":40012},
{"IBAN":"FR90 7378 5354 16IV UIJJ WT6X 667","userId":205,"balance":62674},
{"IBAN":"PL97 6987 1986 0096 4860 4143 5029","userId":41,"balance":27140},
{"IBAN":"ME15 8296 6633 3941 7187 05","userId":242,"balance":1162},
{"IBAN":"DE94 8098 2306 2864 3272 27","userId":33,"balance":67624},
{"IBAN":"BG70 TZCT 7643 54HX UUP4 9R","userId":151,"balance":15913},
{"IBAN":"FR79 6308 4588 49VB OKWU R29H M29","userId":28,"balance":46765},
{"IBAN":"CH49 3010 5JZ7 RPWB 3AI5 W","userId":43,"balance":68042},
{"IBAN":"CZ82 9035 4905 7643 5701 8719","userId":122,"balance":91583},
{"IBAN":"LT69 5619 8284 2013 2564","userId":103,"balance":41101},
{"IBAN":"FR57 2997 6105 09SO 9E3L RRNT C20","userId":24,"balance":52096},
{"IBAN":"BE81 2274 5745 0198","userId":226,"balance":83376},
{"IBAN":"MU55 NHRP 0888 4536 6979 1606 297G SZ","userId":34,"balance":79245},
{"IBAN":"MT20 PWJP 5437 4Y4B IGKB AKTJ JTWA SP0","userId":247,"balance":53452},
{"IBAN":"FR88 6772 2874 03QS LYP0 WE58 O92","userId":11,"balance":47759},
{"IBAN":"SE88 1575 1614 5936 3577 4451","userId":210,"balance":30373},
{"IBAN":"MU21 BTYL 1769 2488 8297 4174 741R LA","userId":99,"balance":61196},
{"IBAN":"FR63 2354 2153 59GG LBLF ROKI 602","userId":176,"balance":29309},
{"IBAN":"SA49 13FD XO5P JANX P6K5 ZX2E","userId":52,"balance":17433},
{"IBAN":"IE35 SRTO 4165 0217 6473 75","userId":59,"balance":23738},
{"IBAN":"TR28 4872 9LNF MYHE UUA8 O0NU UJ","userId":168,"balance":22569},
{"IBAN":"SM80 F600 2624 813T T5QK JHUU DKJ","userId":216,"balance":82702},
{"IBAN":"FR21 5871 5424 79AX GCKD BD3V P31","userId":18,"balance":5827},
{"IBAN":"SM68 R911 9360 729Z UNVD JWLF BXN","userId":27,"balance":37740},
{"IBAN":"MK51 560Y PW9L OAUT 312","userId":293,"balance":16083},
{"IBAN":"SM56 V710 1121 197P QM4C WGJV EJS","userId":57,"balance":24238},
{"IBAN":"IS26 8405 3146 6466 7836 5154 07","userId":163,"balance":16979},
{"IBAN":"AZ47 GJRH W2BU TK4F AEWS 600I PKNX","userId":97,"balance":79731},
{"IBAN":"NO43 7010 8522 135","userId":28,"balance":67499},
{"IBAN":"TN98 1019 7298 9579 5554 0321","userId":31,"balance":28367},
{"IBAN":"FR83 5618 5232 27S8 6Y0B L5IK R43","userId":242,"balance":32735},
{"IBAN":"FR69 0517 5813 57E9 UPNI Q6ME A52","userId":90,"balance":13195},
{"IBAN":"BG65 RIUU 2197 48HL XSAM JL","userId":307,"balance":44128},
{"IBAN":"IS86 4017 5992 2623 9093 2510 20","userId":8,"balance":46531},
{"IBAN":"DE04 4078 7715 7743 2817 09","userId":238,"balance":78903},
{"IBAN":"GI55 NGYD DBJE RSWU NL1T 6B2","userId":51,"balance":21542},
{"IBAN":"RS96 7070 4241 2213 0704 56","userId":24,"balance":2782},
{"IBAN":"CY57 1811 0798 27FZ KPIO SWK4 9H5Y","userId":212,"balance":28151},
{"IBAN":"BR45 8333 1137 7004 2791 9349 144I U","userId":307,"balance":1626},
{"IBAN":"BA23 0985 6064 6864 5784","userId":121,"balance":64579},
{"IBAN":"LU42 3711 L647 EUID 00AG","userId":67,"balance":45484},
{"IBAN":"HU08 4291 8873 5486 5504 5143 1334","userId":276,"balance":78107},
{"IBAN":"IS81 5539 8607 5669 2898 5694 05","userId":160,"balance":27185},
{"IBAN":"LV32 CNNP 0LZ6 TT6P 6DLY B","userId":114,"balance":58113},
{"IBAN":"SA88 472X T0TQ B9S5 SE93 EVQY","userId":95,"balance":99170},
{"IBAN":"FR38 8658 7058 55SD PYNR WJJ5 S84","userId":122,"balance":85537},
{"IBAN":"IE36 WGXQ 2486 6717 2065 22","userId":259,"balance":26312},
{"IBAN":"KW73 IPJU IRAL SOVI C5WB MOFA EE7L 4B","userId":157,"balance":25375},
{"IBAN":"BR91 9374 4008 8357 8667 3930 160O J","userId":105,"balance":57538},
{"IBAN":"FR38 8599 3463 846Y WYVR VAYR M99","userId":62,"balance":36666},
{"IBAN":"FR14 2907 7010 46FD 4Z86 JE5I Y61","userId":293,"balance":89445},
{"IBAN":"LV24 WNZH ZP33 I40F ITV7 6","userId":178,"balance":7206},
{"IBAN":"EE35 5296 1577 7457 3478","userId":302,"balance":68910},
{"IBAN":"SE36 6805 4316 9652 7908 3586","userId":154,"balance":67177},
{"IBAN":"PS22 BNCA UGHU BTPT 8D9M I06Q XBOG V","userId":209,"balance":53464},
{"IBAN":"IS03 0217 0414 2175 3829 1547 30","userId":79,"balance":81597},
{"IBAN":"FR20 6927 8272 46K8 FB5O GXR6 U32","userId":244,"balance":14298},
{"IBAN":"IE69 VQWS 7380 9177 4088 67","userId":307,"balance":29412},
{"IBAN":"RO92 OEPA HOUY VJX8 VHF6 KV0T","userId":48,"balance":-941},
{"IBAN":"PS98 VPHX MJBS QT96 L8FB DJNP P4BK N","userId":133,"balance":12537},
{"IBAN":"SE04 2209 6889 2674 0048 7230","userId":65,"balance":46570},
{"IBAN":"CR59 1800 1140 4422 6638 1","userId":161,"balance":65515},
{"IBAN":"BA49 9180 5845 3507 0963","userId":199,"balance":10055},
{"IBAN":"FR65 6126 2060 65UN GFOS GGUQ D80","userId":15,"balance":3427},
{"IBAN":"CR80 4670 9223 9961 7208 4","userId":33,"balance":47338},
{"IBAN":"BG60 KXHL 9346 52NI WH6V GX","userId":177,"balance":76545},
{"IBAN":"AT61 3037 9897 0704 4339","userId":206,"balance":63735},
{"IBAN":"AE85 2835 3400 3604 9530 318","userId":147,"balance":22920},
{"IBAN":"AL12 7119 7032 MKRO GCBW ZCV8 8RER","userId":201,"balance":50856},
{"IBAN":"FR95 3908 0701 51X9 Z74X YWR3 Q16","userId":112,"balance":20638},
{"IBAN":"FR27 9334 6066 34CT CVAQ PZGJ M53","userId":132,"balance":34787},
{"IBAN":"AE64 8148 4107 9928 4102 467","userId":99,"balance":-828},
{"IBAN":"FR50 7916 6972 32F5 FLNW ZPIE Q87","userId":33,"balance":63276},
{"IBAN":"SK12 4622 2083 4791 7975 5180","userId":13,"balance":4476},
{"IBAN":"GE04 AH66 8900 0784 2075 53","userId":99,"balance":56470},
{"IBAN":"AT58 7628 4199 5784 9756","userId":110,"balance":74954},
{"IBAN":"PT57 2207 7945 6005 8221 3103 3","userId":307,"balance":16151},
{"IBAN":"PK06 YCSB VDI6 RHXM QLMT PYGY","userId":62,"balance":331},
{"IBAN":"FR51 0429 6775 2380 KJXV A5EX Y11","userId":256,"balance":71299},
{"IBAN":"SM35 Y382 9077 3295 PWGJ 9YSP ODY","userId":228,"balance":23126},
{"IBAN":"AD19 7183 7165 TJUD QMXV BCPV","userId":125,"balance":27906},
{"IBAN":"GI65 DICO AIES 0EYM LNDH MVA","userId":264,"balance":31774},
{"IBAN":"TR18 2649 6SPV GMOW TN0E YKFX QC","userId":42,"balance":20908},
{"IBAN":"FR82 2544 3535 79HV WZNJ 4GO4 A03","userId":212,"balance":28256},
{"IBAN":"GT86 GD22 FHXX WE17 WEO6 7GG9 MP3P","userId":116,"balance":89275},
{"IBAN":"CR03 5738 6733 5663 8942 3","userId":241,"balance":8169},
{"IBAN":"DE39 8976 5922 1860 1624 53","userId":162,"balance":58817},
{"IBAN":"DE49 0365 2309 3931 8747 03","userId":58,"balance":83486},
{"IBAN":"ES73 1057 6859 9411 4181 7168","userId":63,"balance":11561},
{"IBAN":"PS15 ILUG ZTKT HRLQ MLPO MBCB 8GXZ H","userId":146,"balance":78532},
{"IBAN":"NL38 QJLK 5707 9890 66","userId":221,"balance":73291},
{"IBAN":"MR19 7445 0785 2578 5214 2673 207","userId":4,"balance":55535},
{"IBAN":"AD39 7026 8711 6CXT RPFA WBKO","userId":169,"balance":89423},
{"IBAN":"FO87 5370 9524 1904 05","userId":303,"balance":24138},
{"IBAN":"FR31 1495 7275 66HM AT4R HKV7 O95","userId":256,"balance":57117},
{"IBAN":"SI41 4516 4297 8259 869","userId":293,"balance":38929},
{"IBAN":"GE55 SW23 8873 4442 6062 58","userId":295,"balance":53014},
{"IBAN":"DO06 VUA5 3975 5305 9498 8065 5441","userId":272,"balance":60313},
{"IBAN":"IS34 9503 6381 3439 2982 7331 44","userId":29,"balance":29585},
{"IBAN":"RO04 MDJP IVOY EZSV QRE0 RUHI","userId":260,"balance":6375},
{"IBAN":"IE26 VLSU 5248 9524 6059 16","userId":62,"balance":56174},
{"IBAN":"SK49 9003 8541 5521 1755 9503","userId":230,"balance":85200},
{"IBAN":"FI93 5570 3164 6375 27","userId":153,"balance":71658},
{"IBAN":"BA25 6685 1805 5692 9539","userId":15,"balance":75390},
{"IBAN":"PT71 3016 4469 2918 8025 3267 2","userId":225,"balance":75517},
{"IBAN":"DE22 4925 0952 9505 9963 83","userId":185,"balance":27512},
{"IBAN":"AL69 2126 5542 J8BO PVDQ HBYB GOEX","userId":25,"balance":72506},
{"IBAN":"FR82 7111 5896 48JJ WQ7Y KHKF 023","userId":38,"balance":50726},
{"IBAN":"GL84 3669 8707 4235 19","userId":51,"balance":28266},
{"IBAN":"MT98 TUCM 9093 5DCN RSQ2 DREF AWDM WYO","userId":306,"balance":1023},
{"IBAN":"TR89 1930 6Q6Y DOIM IDXA QMCH L5","userId":37,"balance":34602},
{"IBAN":"NO64 7338 3564 767","userId":106,"balance":78325},
{"IBAN":"RO89 BNDT JSPA RNXZ OZPD OV3V","userId":255,"balance":58051},
{"IBAN":"PL28 7792 8056 8152 6648 7827 9076","userId":63,"balance":34570},
{"IBAN":"MU08 TXLY 2495 4466 0062 7042 780M YO","userId":307,"balance":97373},
{"IBAN":"TN50 1368 5412 1038 5562 1721","userId":95,"balance":42324},
{"IBAN":"AE89 5232 3510 8024 9594 288","userId":64,"balance":2230},
{"IBAN":"GT26 EYKL 87J2 ZVFZ 11J3 LHFX MOQS","userId":158,"balance":69168},
{"IBAN":"IE38 BXDK 9281 8452 8154 33","userId":297,"balance":32313},
{"IBAN":"SA24 14TN 7M8V BTBJ HOPC BJGC","userId":35,"balance":54804},
{"IBAN":"NL90 VCHW 9319 0708 23","userId":32,"balance":10578},
{"IBAN":"LT04 8013 0482 8983 3671","userId":195,"balance":42201},
{"IBAN":"CR24 2987 5493 1268 9582 4","userId":195,"balance":52674},
{"IBAN":"KW51 CMBS SBYG DHM8 TFG3 YEM5 XCWF JP","userId":10,"balance":93187},
{"IBAN":"FI37 3625 9935 9021 63","userId":198,"balance":50821},
{"IBAN":"SK58 7736 5613 0583 2487 7564","userId":286,"balance":85581},
{"IBAN":"IE68 HLCL 6725 8419 7418 47","userId":50,"balance":78328},
{"IBAN":"BE66 7484 7183 6187","userId":129,"balance":3068},
{"IBAN":"LU82 477U VPOZ C9IK 9TU9","userId":70,"balance":57367},
{"IBAN":"BR86 8323 3823 4678 7417 2256 553V 8","userId":230,"balance":52909},
{"IBAN":"GE47 TE22 4763 4606 1670 57","userId":120,"balance":62750},
{"IBAN":"FI43 6762 2056 4175 84","userId":295,"balance":98003},
{"IBAN":"AZ04 DQPL VKCT HINE ZQAV PDYX X0DK","userId":190,"balance":46591},
{"IBAN":"LI30 3762 2MMS 8TT6 XVMI 7","userId":161,"balance":41533},
{"IBAN":"HR55 5196 1067 7265 5250 9","userId":7,"balance":34441},
{"IBAN":"FR36 0347 6429 36AX FCUC OHFE 412","userId":118,"balance":8712},
{"IBAN":"ME22 6585 3033 2050 0160 85","userId":194,"balance":77209},
{"IBAN":"SE67 6896 0541 9357 3746 9451","userId":248,"balance":-954},
{"IBAN":"HR14 5499 9363 0857 1336 4","userId":160,"balance":66921},
{"IBAN":"FR04 6841 9587 574L VB17 BO2M I57","userId":266,"balance":61203},
{"IBAN":"FR80 8838 7463 65RA L9KA UTME 671","userId":305,"balance":3772},
{"IBAN":"IS61 7538 5682 9432 8224 2245 10","userId":9,"balance":2247},
{"IBAN":"AD13 9695 3374 EFGD HQYV VVA9","userId":269,"balance":76561},
{"IBAN":"FR79 8473 0694 90JY ZZU6 3RI3 463","userId":25,"balance":49645},
{"IBAN":"LV11 TXNG KV4I 8YAY SJDN J","userId":67,"balance":34911},
{"IBAN":"FR81 9290 3106 14UT 9YQC 7IDJ D52","userId":197,"balance":48370},
{"IBAN":"SM28 S121 3578 220A XLMF KGNK GZM","userId":256,"balance":40221},
{"IBAN":"BE20 7270 9867 7371","userId":135,"balance":60763},
{"IBAN":"FR73 2010 0127 38KU 0UYT 24KX B69","userId":149,"balance":47053},
{"IBAN":"GI17 PGHZ 5Z5A 7JBF SKOW KKW","userId":117,"balance":7500},
{"IBAN":"FR02 5443 7525 22S1 ZVNN ZIII I78","userId":245,"balance":60191},
{"IBAN":"BR17 5731 0737 2945 8934 3342 781X D","userId":2,"balance":62265},
{"IBAN":"FR43 3722 8662 43JN UJIP YMXF K70","userId":85,"balance":61659},
{"IBAN":"LI81 2668 9DUZ 4ORP JZER L","userId":173,"balance":6171},
{"IBAN":"TN30 9311 7639 8826 6077 8573","userId":289,"balance":29965},
{"IBAN":"PT72 2955 8351 1986 6651 7262 9","userId":111,"balance":81153},
{"IBAN":"EE73 2404 6263 1630 5153","userId":79,"balance":36571},
{"IBAN":"RO09 GVKW M5AZ RTZE D78G W734","userId":139,"balance":30164},
{"IBAN":"SA12 33EO NAY7 NWLQ QRI2 ZZAR","userId":54,"balance":67356},
{"IBAN":"AT93 9738 5922 8491 9554","userId":272,"balance":58745},
{"IBAN":"FR35 5083 2686 78W5 NSJK 4A7X 004","userId":93,"balance":53066},
{"IBAN":"AZ78 WXXF 1B5S BGRK SJFU HG7J QQFL","userId":59,"balance":29475},
{"IBAN":"AL13 7539 4726 R0N9 XBQQ WO1A LRLK","userId":198,"balance":795},
{"IBAN":"MU82 ACJE 0761 3057 0972 2996 062C YT","userId":6,"balance":2189},
{"IBAN":"FI73 3437 2579 5692 43","userId":129,"balance":5203},
{"IBAN":"GB87 MLRC 4160 9645 5851 45","userId":35,"balance":17035},
{"IBAN":"AE08 6162 0428 4440 6360 651","userId":229,"balance":76620},
{"IBAN":"NL67 FHVI 8425 6757 60","userId":248,"balance":79296},
{"IBAN":"FR89 3686 9060 66CS 31BI KYYO 647","userId":198,"balance":82558},
{"IBAN":"MC44 1106 2091 73KX Q7ZH XPXK B23","userId":246,"balance":38015},
{"IBAN":"FR85 3912 0215 87IP JQ16 ELMM W14","userId":230,"balance":35639},
{"IBAN":"PS80 MPIY EGHC AOBO XR70 KMRW FAFK B","userId":57,"balance":10528},
{"IBAN":"LU14 4313 XTGD HOUG UCOV","userId":16,"balance":77961},
{"IBAN":"FR23 5523 8279 97IB FTVW XXT5 I93","userId":175,"balance":33408},
{"IBAN":"KW64 KILY QWHN ZP9T WBHJ SHKY 7EQO HH","userId":147,"balance":72284},
{"IBAN":"LI61 0377 8XGW HSCR ADFX Z","userId":77,"balance":79277},
{"IBAN":"SK68 6469 3688 7464 5758 0169","userId":249,"balance":94347},
{"IBAN":"LI25 1523 8K0G YSJU KIFN Q","userId":250,"balance":58021},
{"IBAN":"EE34 1788 1765 0264 9767","userId":69,"balance":18396},
{"IBAN":"MK21 2827 TW0G 9VZW E14","userId":72,"balance":86426},
{"IBAN":"GL48 0138 6610 0313 56","userId":265,"balance":8535},
{"IBAN":"IL07 0905 9860 2181 9748 521","userId":100,"balance":64754},
{"IBAN":"DK90 2428 0953 9132 41","userId":221,"balance":53663},
{"IBAN":"CR19 9919 4964 9449 2217 9","userId":99,"balance":61649},
{"IBAN":"TR30 0738 052X 87LQ DPQX TZAU KU","userId":26,"balance":1506},
{"IBAN":"MK71 245M XNNB YDYN J97","userId":157,"balance":98060},
{"IBAN":"PT60 7783 4791 3727 9796 7680 7","userId":252,"balance":91221},
{"IBAN":"MC85 9745 6145 59TG QAUN 6OFD B10","userId":239,"balance":8000},
{"IBAN":"FR94 3553 1837 74JB LTCR CLZG U68","userId":20,"balance":89725},
{"IBAN":"AZ98 TCPZ 7RBW TGBS ILGY QUSJ K8QY","userId":123,"balance":51400},
{"IBAN":"IE47 CAKZ 8806 1763 1878 28","userId":134,"balance":4938},
{"IBAN":"LT68 0629 5152 7853 2261","userId":105,"balance":6962},
{"IBAN":"FR56 2241 0489 17Y7 CHIJ 0UBK Z42","userId":89,"balance":64105},
{"IBAN":"PT50 6512 3348 3558 4758 3719 1","userId":189,"balance":48912},
{"IBAN":"HU16 4461 4786 8745 8388 0593 6559","userId":140,"balance":26195},
{"IBAN":"FI27 4000 0079 4109 40","userId":192,"balance":10295},
{"IBAN":"PT87 2288 0495 4537 4047 8846 7","userId":43,"balance":97280},
{"IBAN":"MU88 PGVK 3900 8536 1476 4435 842R NX","userId":167,"balance":9304},
{"IBAN":"KW64 UZJP QLAT FNKQ PYMG TFRF LSPR NH","userId":114,"balance":73133},
{"IBAN":"GI65 FDXS HUCD FAJJ AN3P GUK","userId":222,"balance":17},
{"IBAN":"AL14 2884 0814 AIEP RSN6 8IVT YJTJ","userId":5,"balance":45325},
{"IBAN":"BE58 7677 5759 6424","userId":300,"balance":13658},
{"IBAN":"ES04 7512 0718 2605 4546 1143","userId":283,"balance":52139},
{"IBAN":"BA13 9280 5560 4567 2687","userId":122,"balance":56714},
{"IBAN":"ES87 5448 2813 5875 5647 8824","userId":251,"balance":43973},
{"IBAN":"FR75 3893 9325 09DN 03VB LP8F P02","userId":58,"balance":29432},
{"IBAN":"AZ93 ZBIZ AN7A 4UIF A05E LZML HMZZ","userId":163,"balance":56448},
{"IBAN":"BH46 OEXB 2UA3 JCP8 ZSHB FF","userId":69,"balance":65423},
{"IBAN":"AD33 8010 3317 Q7TU TIXK 5KXX","userId":177,"balance":81980},
{"IBAN":"BG52 GLKO 4127 46MM 7QUO RS","userId":35,"balance":48903},
{"IBAN":"BA02 6352 9194 9141 4467","userId":301,"balance":9995},
{"IBAN":"FR52 6245 3422 20TX M3FS GLQZ P32","userId":215,"balance":51256},
{"IBAN":"FR81 5453 8979 31SM 3XND NE6K T00","userId":239,"balance":71969},
{"IBAN":"FI65 2172 3290 1816 89","userId":138,"balance":28940},
{"IBAN":"LT17 4963 3338 5488 7466","userId":130,"balance":51980},
{"IBAN":"TN05 7178 5537 6178 6007 2677","userId":37,"balance":20758},
{"IBAN":"FR28 0754 4170 53TU 7BY6 LOFP Y36","userId":261,"balance":32365},
{"IBAN":"NL51 QDNU 2046 6424 68","userId":165,"balance":13671},
{"IBAN":"PT16 7362 8030 0751 3716 1187 4","userId":304,"balance":16609},
{"IBAN":"BA73 6011 8417 5232 0405","userId":8,"balance":58690},
{"IBAN":"NO64 5519 8822 477","userId":219,"balance":65376},
{"IBAN":"LU16 389M J4PK DYAV AWL3","userId":73,"balance":57567},
{"IBAN":"HU76 3810 3507 4495 3199 8268 4812","userId":56,"balance":49247},
{"IBAN":"TR29 6337 9TYG QWKJ XNVJ AZ11 VH","userId":23,"balance":36274},
{"IBAN":"MU84 QNKN 4023 9033 3823 3850 829M HH","userId":64,"balance":98930},
{"IBAN":"VG83 MDIQ 6717 9397 8367 7260","userId":168,"balance":45234},
{"IBAN":"DK76 0001 0452 0878 74","userId":279,"balance":5081},
{"IBAN":"FR85 0281 0792 04J4 EZR5 QHQW Z41","userId":122,"balance":29927},
{"IBAN":"TN68 5689 5033 5666 5169 0653","userId":212,"balance":52197},
{"IBAN":"LV92 FPYX DCWP ZBSW LIF0 M","userId":53,"balance":94099},
{"IBAN":"GB40 SRWY 1320 6698 3733 38","userId":238,"balance":86343},
{"IBAN":"FR75 0876 9143 81JH FLZP NTLM O57","userId":158,"balance":8199},
{"IBAN":"AL12 8860 1740 TMUY SUE5 XNXN UJ7A","userId":75,"balance":8069},
{"IBAN":"FR10 4855 7402 58W9 JM3Q KCBJ O26","userId":15,"balance":47003},
{"IBAN":"MT07 UZSG 1989 1HY6 SN2X XGRB UWBX AYB","userId":63,"balance":78348},
{"IBAN":"BE48 8868 8386 3375","userId":74,"balance":1644},
{"IBAN":"IL75 4832 0292 4983 5970 603","userId":145,"balance":44021},
{"IBAN":"BR37 2046 9718 0306 2547 9169 017R 2","userId":225,"balance":45279},
{"IBAN":"MK91 308X BTYB MURL A38","userId":33,"balance":57516},
{"IBAN":"BA05 2409 8054 5394 0736","userId":227,"balance":82138},
{"IBAN":"FR22 7406 8142 994H YPOV 59RQ M84","userId":82,"balance":89811},
{"IBAN":"MU67 UCGR 9019 7508 0245 2627 789E EK","userId":141,"balance":67338},
{"IBAN":"MR26 2071 3725 7290 5561 8562 936","userId":175,"balance":65760},
{"IBAN":"FR69 1243 8083 339T CV5J TSWZ L05","userId":305,"balance":38986},
{"IBAN":"RS49 9365 4644 9693 5280 16","userId":51,"balance":26336},
{"IBAN":"FI63 5697 1419 9042 90","userId":147,"balance":52545},
{"IBAN":"VG85 ZKYH 9709 7811 5284 1950","userId":92,"balance":13392},
{"IBAN":"IE65 VTAU 8932 1384 1143 89","userId":25,"balance":59544},
{"IBAN":"LI54 5888 9M89 FN5V OJJZ G","userId":98,"balance":64510},
{"IBAN":"CY61 2718 6191 5GXG OSMX HQE6 B6IU","userId":293,"balance":6325},
{"IBAN":"LV56 CPUR FROD DPXU XND5 5","userId":12,"balance":28259},
{"IBAN":"KW24 GCOO KAUV B6AR B7UG NXAP QN1S T7","userId":7,"balance":44328},
{"IBAN":"IE15 IYCC 0349 8934 9146 61","userId":206,"balance":66659},
{"IBAN":"FI25 2213 3479 2802 51","userId":284,"balance":33017},
{"IBAN":"FR15 0739 3787 26MS GRRO YIF3 G71","userId":302,"balance":35811},
{"IBAN":"GB82 OPES 8184 3120 3654 22","userId":266,"balance":10395},
{"IBAN":"FR25 3350 7135 013Z SQES EF6A W00","userId":74,"balance":-293},
{"IBAN":"GB23 XMCT 5469 5822 9764 30","userId":295,"balance":63954},
{"IBAN":"RO82 SJJO 8AVT XLJ5 NPZO CQB8","userId":119,"balance":86851},
{"IBAN":"AZ68 OMTU X5GV 3SVP N3YL JZTK 2JI7","userId":7,"balance":35771},
{"IBAN":"FR07 1886 4483 08RL XP96 Z62N R55","userId":79,"balance":35220},
{"IBAN":"SK56 5709 8216 5472 3581 2438","userId":48,"balance":74905},
{"IBAN":"LU49 017O LXM7 RRLR ORPV","userId":270,"balance":76384},
{"IBAN":"SI74 2957 8304 9260 301","userId":143,"balance":54665},
{"IBAN":"DE57 7321 9558 8154 3032 25","userId":188,"balance":46375},
{"IBAN":"FI22 5757 5877 2150 48","userId":205,"balance":54663},
{"IBAN":"NL73 PMKU 5227 3945 12","userId":299,"balance":96341},
{"IBAN":"LU78 201A BUUH 5HMT S32L","userId":231,"balance":26976},
{"IBAN":"AT79 7700 3215 2617 9225","userId":245,"balance":70390},
{"IBAN":"DO38 HMQY 6090 1730 7625 1481 8470","userId":192,"balance":59110},
{"IBAN":"BH58 FJNF ECSW O7J1 HHBS ME","userId":221,"balance":37196},
{"IBAN":"AL47 6036 5921 JFXF TFKC CYND GJB6","userId":129,"balance":84877},
{"IBAN":"FR66 2126 5489 91TS 9HIL R7JE X28","userId":66,"balance":68098},
{"IBAN":"HU90 6160 4770 3653 1505 7643 6185","userId":262,"balance":89297},
{"IBAN":"DK44 3856 6361 1854 36","userId":246,"balance":15365},
{"IBAN":"FO61 1005 1228 0130 91","userId":140,"balance":4873},
{"IBAN":"FR85 0487 0683 219I S50F PBZB C39","userId":76,"balance":68604},
{"IBAN":"FR55 1111 7434 950F IUMA ERCR B83","userId":32,"balance":66837},
{"IBAN":"IS92 0701 1625 2085 4019 4922 22","userId":70,"balance":960},
{"IBAN":"AL79 4777 6607 UQ8G BYZV C96Q JEJH","userId":242,"balance":13407},
{"IBAN":"DE80 9203 5880 1210 3692 09","userId":81,"balance":20357},
{"IBAN":"PK49 TQZS P77R SXEA 4D9D 5CHC","userId":80,"balance":62748},
{"IBAN":"KW51 RKJP 0QJY YW37 L7BY AIDD H0P9 DE","userId":262,"balance":78115},
{"IBAN":"GT13 VSRR 4IQF TZI6 YR9P SET8 RRR5","userId":18,"balance":2906},
{"IBAN":"AL51 5342 6202 FPSX ENFI OERU 0SMS","userId":149,"balance":32120},
{"IBAN":"GB78 XCDF 6030 3508 2499 67","userId":95,"balance":46867},
{"IBAN":"GT09 4CDL SBOE COMZ PZU8 JXZR M5KH","userId":148,"balance":72169},
{"IBAN":"GB76 GISC 2630 1271 8347 71","userId":273,"balance":56988},
{"IBAN":"SE07 2418 7143 0242 7498 6312","userId":88,"balance":82810},
{"IBAN":"FR32 4455 9165 222U WHNL DLMI Y50","userId":294,"balance":99821},
{"IBAN":"KW13 DGXG DSI1 T1JC QGJU LISO GDZO HK","userId":74,"balance":-181},
{"IBAN":"PK24 QLBZ K94D TATA BODN CYCJ","userId":262,"balance":75377},
{"IBAN":"FR93 3074 8117 144R P6SC MK4S T75","userId":122,"balance":31016},
{"IBAN":"KW69 VXXY HLYI CVXY DEVC GSOK COKF RN","userId":41,"balance":35958},
{"IBAN":"MR54 7110 6405 3264 4586 6807 898","userId":85,"balance":83},
{"IBAN":"SK49 7005 3806 8738 9336 4172","userId":29,"balance":83107},
{"IBAN":"LU75 3676 VA6C B4GW NHOZ","userId":188,"balance":21603},
{"IBAN":"LU26 953A 7POJ KJS7 ABZP","userId":169,"balance":13912},
{"IBAN":"NO89 8467 8716 513","userId":36,"balance":86931},
{"IBAN":"CH30 3690 8SUP J2ZV TRAS 5","userId":28,"balance":39091},
{"IBAN":"MU37 QRUW 8372 2101 7273 9914 288H FC","userId":55,"balance":21115},
{"IBAN":"LV39 OWOX PKMP 1HT1 JMYN B","userId":40,"balance":22364},
{"IBAN":"LB21 5416 WVFR 2ZFV HFNV UEED ZJTS","userId":16,"balance":709},
{"IBAN":"AE91 6242 0994 0430 4301 745","userId":229,"balance":46923},
{"IBAN":"MU52 MCIK 8239 2016 1351 9769 310D OD","userId":35,"balance":74922},
{"IBAN":"FO95 1898 2686 9704 57","userId":88,"balance":15758},
{"IBAN":"SK28 5776 0618 2171 3113 7753","userId":192,"balance":-539},
{"IBAN":"FR38 9935 9034 82ER SATA MGOJ W63","userId":101,"balance":27677},
{"IBAN":"SK83 5491 4847 7889 2294 2343","userId":105,"balance":13410},
{"IBAN":"LV43 WKYU 2VTK KHE4 BY4M W","userId":260,"balance":10192},
{"IBAN":"SA97 6795 IYQB CJB5 6OLX IUNR","userId":285,"balance":66347},
{"IBAN":"PK98 IPMN V3R6 WCB2 WNN4 LHOB","userId":126,"balance":80299},
{"IBAN":"MU78 YXRS 9690 4974 2335 1588 551K KS","userId":166,"balance":87542},
{"IBAN":"EE44 1337 6568 1417 8495","userId":35,"balance":94273},
{"IBAN":"HR57 6957 0260 1141 7193 2","userId":299,"balance":24674},
{"IBAN":"FR12 5860 9937 418B H2CK OBKZ H12","userId":1,"balance":38957},
{"IBAN":"LT13 9282 4859 1418 6008","userId":72,"balance":93660},
{"IBAN":"MD54 UID3 THEF CIKS NSXN SALA","userId":68,"balance":90582},
{"IBAN":"MC17 6028 9185 98X6 QEQJ V5QX M52","userId":94,"balance":59716},
{"IBAN":"FR96 2997 5318 00W5 IMAK 2FHZ L06","userId":260,"balance":92172},
{"IBAN":"LV97 HHGG RVLR SDEN F0QQ F","userId":240,"balance":40244},
{"IBAN":"SM12 Q005 2504 803A UY6D WD1I 3NS","userId":141,"balance":92273},
{"IBAN":"SE30 2353 4297 9884 6018 4667","userId":36,"balance":12846},
{"IBAN":"AZ40 PNRN CMDM JZAN 4UAQ JZTU 1NKI","userId":287,"balance":42121},
{"IBAN":"AT45 8908 5000 8047 7794","userId":173,"balance":36584},
{"IBAN":"CZ33 1812 9916 6915 9427 1645","userId":163,"balance":99631},
{"IBAN":"GE84 RF25 8148 8247 4233 57","userId":11,"balance":70060},
{"IBAN":"NO19 8965 3062 752","userId":64,"balance":71623},
{"IBAN":"DE53 6700 7775 7533 8873 20","userId":250,"balance":82390},
{"IBAN":"FI46 4613 4188 6166 84","userId":3,"balance":50096},
{"IBAN":"CZ80 7743 2030 6376 1427 1416","userId":72,"balance":42919},
{"IBAN":"PT28 5483 9297 9101 5965 3325 7","userId":173,"balance":22249},
{"IBAN":"RS40 8817 8050 5794 7066 73","userId":147,"balance":31616},
{"IBAN":"FR40 6881 3552 122V 6S2R MTVA U77","userId":113,"balance":73720},
{"IBAN":"CR65 7820 1080 3463 4831 8","userId":130,"balance":65762},
{"IBAN":"LB90 2281 G4RU THEX E42L 4LX4 ZO8J","userId":9,"balance":62917},
{"IBAN":"MD40 ZPD2 DHLB J9LK 6UN7 TQFT","userId":215,"balance":41515},
{"IBAN":"LB49 3019 CF5B 45US IQTN YD2T E2FL","userId":174,"balance":8985},
{"IBAN":"EE50 1564 5575 9546 4406","userId":14,"balance":77800},
{"IBAN":"KZ54 323U ZINT THS3 FHTI","userId":78,"balance":17761},
{"IBAN":"FR84 1258 1544 747W SOQA 4T5U S54","userId":173,"balance":91532},
{"IBAN":"RO32 JUTM UJFJ 2O7M JAXZ DQ0H","userId":60,"balance":51946},
{"IBAN":"FR25 5106 5888 072G OJYR HWRP R02","userId":204,"balance":4705},
{"IBAN":"MR22 3818 7850 7079 7002 7164 560","userId":35,"balance":1317},
{"IBAN":"AD77 1544 2631 4LO9 SOYJ DGFK","userId":219,"balance":16166},
{"IBAN":"IS16 3970 1776 2675 9339 9289 49","userId":182,"balance":78723},
{"IBAN":"LT62 6615 7228 1196 9113","userId":125,"balance":50263},
{"IBAN":"LI69 8147 0HVZ LOYP IA2Z Z","userId":162,"balance":81666},
{"IBAN":"TN20 9563 6601 0563 8393 0908","userId":223,"balance":89285},
{"IBAN":"CH68 1918 9PQB AQL7 FJ4Q P","userId":8,"balance":78752},
{"IBAN":"SM15 E222 0809 694M BGLK 8SYQ WSR","userId":216,"balance":30253},
{"IBAN":"IS49 0516 6776 5760 2734 5221 46","userId":40,"balance":83624},
{"IBAN":"MU78 UIGQ 6722 6947 0626 9865 748P DV","userId":171,"balance":87096},
{"IBAN":"AT30 9886 6121 0193 4136","userId":122,"balance":81244},
{"IBAN":"TR26 3728 0JXF PLAX V6YV VFE3 HR","userId":192,"balance":68186},
{"IBAN":"LB41 5484 XQFI LARQ WMVO EC2D DLY9","userId":22,"balance":91042},
{"IBAN":"ES36 5491 2826 5946 7917 1682","userId":85,"balance":25511},
{"IBAN":"CR07 2769 7216 9644 3669 1","userId":227,"balance":97571},
{"IBAN":"RO64 BVRX 7ARS JZWV GZTD T0DN","userId":257,"balance":45579},
{"IBAN":"MR76 8000 7191 3185 5091 6832 701","userId":272,"balance":55821},
{"IBAN":"FI96 8140 1970 2343 51","userId":229,"balance":97829},
{"IBAN":"HR69 1710 2999 1062 1037 6","userId":98,"balance":56402},
{"IBAN":"BG42 BCAQ 6740 11LC BW2Y Q9","userId":302,"balance":35000},
{"IBAN":"GI72 MTWD I0YO JHUA ANZM 5H7","userId":129,"balance":26517},
{"IBAN":"DO25 9PBN 5779 0080 9881 1298 1214","userId":181,"balance":7239},
{"IBAN":"FR83 1560 7982 52WC LA22 ZC3G T98","userId":40,"balance":74318},
{"IBAN":"SI61 3649 2193 7103 966","userId":12,"balance":3921},
{"IBAN":"IS38 1475 1760 1067 7649 8284 17","userId":244,"balance":85518},
{"IBAN":"FR21 1720 9742 68A4 VL97 FDGF N58","userId":106,"balance":86941},
{"IBAN":"PT17 7842 1251 3750 9022 1718 8","userId":157,"balance":33393},
{"IBAN":"IT08 A615 9935 762B B6UY HYJI I8V","userId":172,"balance":2721},
{"IBAN":"RO16 CINZ 0Z0W EFD1 Y1JH E2DQ","userId":260,"balance":97803},
{"IBAN":"FR79 5994 0653 59ZJ W75A 2QCN K00","userId":94,"balance":47984},
{"IBAN":"MD30 T2FY 0UH8 KB0B ICAL QSAY","userId":135,"balance":36843},
{"IBAN":"FR69 1513 2490 82PJ CUNS A6I4 L21","userId":287,"balance":34878},
{"IBAN":"SK37 7807 0135 6267 1739 2151","userId":30,"balance":9128},
{"IBAN":"PL39 4983 3072 7839 9525 8948 6795","userId":264,"balance":98856},
{"IBAN":"IL88 4127 2540 3581 2117 593","userId":198,"balance":22960},
{"IBAN":"RS53 2838 7139 6299 5625 40","userId":263,"balance":82653},
{"IBAN":"IS88 8545 3651 0166 3113 6910 97","userId":10,"balance":3591},
{"IBAN":"PS54 FSRD FHQH GPSG TKIV XFI4 5JM9 D","userId":278,"balance":25190},
{"IBAN":"PL15 9838 8140 4713 6928 3523 9382","userId":153,"balance":89744},
{"IBAN":"PK82 WLET 9UYL TIPO K6FJ DG9I","userId":250,"balance":47474},
{"IBAN":"DE25 5883 2190 1388 8999 64","userId":51,"balance":54864},
{"IBAN":"LI21 0667 4MA2 NTCY S3WQ X","userId":31,"balance":71247},
{"IBAN":"MT57 KAAU 7357 5QWY UNCY WVTB SUQM XBH","userId":299,"balance":86818},
{"IBAN":"DK73 0235 8389 5075 04","userId":154,"balance":14621},
{"IBAN":"AD83 1954 0257 LMSR SIPB N20R","userId":269,"balance":70311},
{"IBAN":"AD62 0216 4221 7JCO 0AYZ KWOE","userId":259,"balance":9735},
{"IBAN":"RO54 CQRM 7FLX HCM2 FFEV 275S","userId":159,"balance":59592}]